0.2434, 0.2355
0.2633, 0.2355
0.2832, 0.2354
0.3031, 0.2106
0.3229, 0.2105
0.3428, 0.2105
0.3627, 0.2105
0.3826, 0.2104
0.4024, 0.2104
0.4223, 0.2103
0.4422, 0.2351
0.4621, 0.2599
0.4621, 0.2848
0.4819, 0.3096
0.5018, 0.3344
0.5018, 0.3592
0.5217, 0.3592
0.5217, 0.384
0.5415, 0.4088
0.5614, 0.4336
0.5813, 0.4584
0.6012, 0.4584
0.621, 0.4584
0.6409, 0.4832
0.6608, 0.483
0.6806, 0.483
0.7005, 0.5079
0.7204, 0.5078
0.7403, 0.5078
0.7601, 0.5326
0.78, 0.5326
0.7999, 0.5325
0.8197, 0.5325
0.8396, 0.5573
0.8595, 0.5573
0.8794, 0.5572
0.8993, 0.5819
0.9191, 0.5819
0.939, 0.5819
0.9588, 0.6068
0.9788, 0.6067
0.9986, 0.6067
1.0185, 0.6315
1.0384, 0.6314
1.0583, 0.6314
1.0781, 0.6562
1.098, 0.6562
1.1179, 0.6561
1.1378, 0.6808
1.1576, 0.6808
1.1775, 0.6808
1.1974, 0.6808
1.2173, 0.7056
1.2371, 0.7056
1.257, 0.7056
1.2769, 0.7304
1.2967, 0.7303
1.3166, 0.7303
1.3365, 0.7551
1.3564, 0.755
1.3761, 0.755
1.3961, 0.7798
1.416, 0.7798
1.4359, 0.7797
1.4557, 0.8045
1.4756, 0.8045
1.4955, 0.8045
1.5154, 0.8044
1.5352, 0.8292
1.5551, 0.8292
1.575, 0.8292
1.5949, 0.854
1.6147, 0.8538
1.6346, 0.8538
1.6545, 0.8787
1.6743, 0.8786
1.6942, 0.8786
1.7141, 0.9034
1.734, 0.9034
1.7539, 0.9033
1.7737, 0.9033
1.7936, 0.9281
1.8135, 0.9281
1.8334, 0.928
1.8532, 0.9527
1.8731, 0.9527
1.893, 0.9527
1.9127, 0.9776
1.9327, 0.9775
1.9526, 0.9775
1.9725, 1.0023
1.9923, 1.0022
2.0122, 1.0022
2.0321, 1.0022
2.052, 1.027
2.0718, 1.0269
2.0917, 1.0269
2.1116, 1.0517
2.1315, 1.0517
2.1513, 1.0516
2.1712, 1.0764
2.1911, 1.0764
2.211, 1.0764
2.2308, 1.0763
2.2507, 1.1011
2.2706, 1.1011
2.2905, 1.101
2.3103, 1.1259
2.3302, 1.1258
2.3501, 1.1258
2.37, 1.1506
2.3898, 1.1505
2.4097, 1.1505
2.4296, 1.1753
2.4495, 1.1753
2.4693, 1.1752
2.4892, 1.1752
2.5091, 1.2
2.529, 1.2
2.5488, 1.1999
2.5687, 1.1999
2.5886, 1.1998
2.6085, 1.1998
2.6282, 1.2246
2.6482, 1.2246
2.6681, 1.2245
2.688, 1.2245
2.7078, 1.2245
2.7277, 1.2244
2.7476, 1.2492
2.7675, 1.2492
2.7873, 1.2492
2.8072, 1.249
2.8271, 1.249
2.847, 1.249
2.8668, 1.249
2.8867, 1.2738
2.9066, 1.2738
2.9264, 1.2737
2.9463, 1.2737
2.9662, 1.2737
2.9861, 1.2736
3.006, 1.2984
3.0258, 1.2984
3.0457, 1.2984
3.0656, 1.2983
3.0855, 1.2983
3.1053, 1.2982
3.1252, 1.323
3.1451, 1.323
3.165, 1.323
3.1848, 1.3229
3.2046, 1.3229
3.2246, 1.3229
3.2445, 1.3228
3.2643, 1.3476
3.2842, 1.3476
3.3041, 1.3475
3.324, 1.3475
3.3437, 1.3475
3.3637, 1.3474
3.3836, 1.3721
3.4035, 1.3721
3.4233, 1.3721
3.4432, 1.3721
3.4631, 1.3721
3.483, 1.3721
3.5028, 1.3719
3.5227, 1.3719
3.5426, 1.3719
3.5625, 1.3719
3.5823, 1.3719
3.6021, 1.3718
3.6221, 1.3718
3.642, 1.3718
3.6618, 1.3717
3.6817, 1.3717
3.7016, 1.3716
3.7215, 1.3716
3.7412, 1.3716
3.7612, 1.3715
3.7811, 1.3715
3.801, 1.3466
3.8209, 1.3466
3.8407, 1.3465
3.8606, 1.3465
3.8805, 1.3465
3.9003, 1.3464
3.9202, 1.3464
3.9401, 1.3464
3.96, 1.3463
3.9799, 1.3463
3.9997, 1.3214
4.0196, 1.3214
4.0395, 1.3213
4.0594, 1.3213
4.0792, 1.3213
4.0991, 1.3212
4.119, 1.3212
4.1389, 1.3212
4.1587, 1.3211
4.1786, 1.3211
4.1985, 1.321
4.2184, 1.2962
4.2383, 1.2961
4.2581, 1.2961
4.278, 1.2961
4.2979, 1.296
4.3178, 1.296
4.3376, 1.2959
4.3575, 1.2959
4.3774, 1.2959
4.3973, 1.2958
4.4171, 1.271
4.437, 1.2709
4.4569, 1.2709
4.4768, 1.2708
4.4966, 1.2708
4.5165, 1.2708
4.5364, 1.2707
4.5563, 1.2707
4.576, 1.2707
4.596, 1.2458
4.6159, 1.2457
4.6358, 1.2457
4.6557, 1.2457
4.6755, 1.2456
4.6954, 1.2456
4.7153, 1.2456
4.7351, 1.2207
4.755, 1.2207
4.7749, 1.2206
4.7948, 1.2206
4.8147, 1.2205
4.8345, 1.2205
4.8544, 1.1956
4.8742, 1.1956
4.8942, 1.1956
4.914, 1.1955
4.9339, 1.1955
4.9538, 1.1954
4.9737, 1.1954
4.9936, 1.1705
5.0134, 1.1705
5.0333, 1.1705
5.0532, 1.1703
5.0731, 1.1703
5.0929, 1.1703
5.1128, 1.1703
5.1327, 1.1454
5.1526, 1.1454
5.1724, 1.1454
5.1923, 1.1453
5.2122, 1.1453
5.2321, 1.1452
5.2519, 1.1452
5.2718, 1.1203
5.2917, 1.1203
5.3115, 1.1203
5.3315, 1.1202
5.3513, 1.1202
5.3712, 1.1201
5.3911, 1.1201
5.411, 1.0952
5.4308, 1.0952
5.4506, 1.0952
5.4706, 1.0951
5.4905, 1.0951
5.5103, 1.0951
5.5302, 1.0702
5.5501, 1.0701
5.5699, 1.0701
5.5897, 1.0701
5.6097, 1.0452
5.6296, 1.0452
5.6495, 1.0451
5.6694, 1.0451
5.6892, 1.0202
5.709, 1.0202
5.729, 1.0201
5.7489, 1.0201
5.7687, 0.9952
5.7886, 0.9952
5.8085, 0.995
5.8284, 0.9703
5.8483, 0.9702
5.8681, 0.9702
5.888, 0.9702
5.9079, 0.9453
5.9278, 0.9452
5.9476, 0.9452
5.9675, 0.9452
5.9874, 0.9203
6.0073, 0.9203
6.0271, 0.9202
6.047, 0.9202
6.0669, 0.8953
6.0868, 0.8953
6.1067, 0.8952
6.1265, 0.8952
6.1464, 0.8702
6.1663, 0.8702
6.1862, 0.8702
6.206, 0.8454
6.2259, 0.8453
6.2458, 0.8453
6.2657, 0.8453
6.2856, 0.8204
6.3054, 0.8203
6.3253, 0.8203
6.3452, 0.8203
6.3651, 0.7953
6.3849, 0.7953
6.4048, 0.7953
6.4247, 0.7953
6.4445, 0.7704
6.4644, 0.7704
6.4843, 0.7703
6.5042, 0.7703
6.5241, 0.7454
6.544, 0.7454
6.5638, 0.7452
6.5836, 0.7452
6.6036, 0.7204
6.6235, 0.7204
6.6433, 0.7204
6.6632, 0.7203
6.6831, 0.7203
6.7029, 0.6954
6.7227, 0.6954
6.7427, 0.6953
6.7626, 0.6953
6.7825, 0.6953
6.8024, 0.6703
6.8222, 0.6703
6.842, 0.6703
6.862, 0.6703
6.8819, 0.6454
6.9017, 0.6454
6.9216, 0.6453
6.9415, 0.6453
6.9614, 0.6453
6.9811, 0.6204
7.0011, 0.6202
7.021, 0.6202
7.0409, 0.6202
7.0607, 0.6202
7.0806, 0.5954
7.1005, 0.5953
7.1204, 0.5953
7.1403, 0.5952
7.1601, 0.5952
7.18, 0.5703
7.1999, 0.5703
7.2198, 0.5703
7.2396, 0.5702
7.2595, 0.5453
7.2793, 0.5453
7.2993, 0.5453
7.3191, 0.5452
7.339, 0.5452
7.3589, 0.5203
7.3788, 0.5203
7.3987, 0.5202
7.4184, 0.5202
7.4384, 0.5202
7.4583, 0.4953
7.4782, 0.4953
7.498, 0.4952
7.5179, 0.4952
7.5377, 0.495
7.5577, 0.4703
7.5775, 0.4702
7.5974, 0.4702
7.6173, 0.4702
7.6372, 0.4701
7.6571, 0.4452
7.6768, 0.4452
7.6968, 0.4452
7.7167, 0.4451
7.7366, 0.4451
7.7564, 0.4451
7.7763, 0.4202
7.7962, 0.4202
7.8161, 0.4201
7.8359, 0.4201
7.8558, 0.42
7.8757, 0.42
7.8956, 0.3951
7.9154, 0.3951
7.9353, 0.3951
7.9552, 0.395
7.975, 0.395
7.995, 0.37
8.0148, 0.37
8.0347, 0.37
8.0546, 0.37
8.0745, 0.37
8.0943, 0.3699
8.1142, 0.345
8.1341, 0.345
8.154, 0.345
8.1738, 0.3449
8.1937, 0.3449
8.2136, 0.32
8.2335, 0.32
8.2534, 0.3199
8.2732, 0.3199
8.2931, 0.3199
8.313, 0.3197
8.3329, 0.295
8.3527, 0.2949
8.3726, 0.2949
8.3925, 0.2948
8.4123, 0.2948
8.4322, 0.2948
8.4521, 0.2699
8.472, 0.2699
8.4919, 0.2698
8.5117, 0.2698
8.5316, 0.2697
8.5514, 0.2697
8.5714, 0.2448
8.5913, 0.2448
8.6111, 0.2448
8.631, 0.2447
8.6509, 0.2447
8.6707, 0.2447
8.6905, 0.2446
8.7105, 0.2446
8.7304, 0.2197
8.7503, 0.2197
8.7701, 0.2196
8.79, 0.2196
8.8098, 0.2196
8.8298, 0.2195
8.8496, 0.2195
8.8695, 0.2194
8.8894, 0.2194
8.9093, 0.1945
8.9292, 0.1945
8.9489, 0.1945
8.9689, 0.1944
8.9888, 0.1944
9.0087, 0.1943
9.0285, 0.1943
9.0484, 0.1694
9.0683, 0.1694
9.0882, 0.1694
9.108, 0.1693
9.1279, 0.1693
9.1478, 0.1692
9.1677, 0.1692
9.1875, 0.1692
9.2074, 0.1691
9.2273, 0.1691
9.2472, 0.1442
9.2671, 0.1442
9.2869, 0.1442
9.3068, 0.1441
9.3267, 0.1441
9.3466, 0.144
9.3664, 0.144
9.3862, 0.144
9.4062, 0.1439
9.4261, 0.1191
9.4459, 0.119
9.4658, 0.119
9.4857, 0.1189
9.5056, 0.1189
9.5253, 0.1189
9.5453, 0.1188
9.5652, 0.1188
9.5851, 0.1188
9.6049, 0.1187
9.6248, 0.1187
9.6447, 0.0937
9.6646, 0.0937
9.6844, 0.0937
9.7043, 0.0937
9.7242, 0.0937
9.7441, 0.0936
9.764, 0.0936
9.7838, 0.0935
9.8037, 0.0935
9.8235, 0.0935
9.8435, 0.0686
9.8633, 0.0686
9.8832, 0.0685
9.9031, 0.0685
9.923, 0.0684
9.9428, 0.0684
9.9627, 0.0684
9.9826, 0.0683
10.0025, 0.0683
10.0223, 0.0683
10.0422, 0.0682
10.0621, 0.0682
10.082, 0.0682
10.1018, 0.0681
10.1217, 0.0681
10.1416, 0.068
10.1615, 0.068
10.1814, 0.068
10.2012, 0.0431
10.2211, 0.0431
10.241, 0.043
10.2609, 0.043
10.2807, 0.0429
10.3006, 0.0429
10.3205, 0.0429
10.3404, 0.0428
10.3602, 0.0428
10.3801, 0.0428
10.4, 0.0427
10.4199, 0.0427
10.4397, 0.0426
10.4596, 0.0426
10.4795, 0.0426
10.4994, 0.0425
10.5192, 0.0425
10.5391, 0.0425
10.559, 0.0424
10.5789, 0.0424
10.5987, 0.0424
10.6186, 0.0423
10.6385, 0.0423
10.6583, 0.0422
10.6783, 0.0422
10.6981, 0.0422
10.718, 0.0421
10.7379, 0.0421
10.7578, 0.0421
10.7776, 0.042
10.7974, 0.042
10.8174, 0.0419
10.8373, 0.0419
10.8571, 0.0419
10.877, 0.0418
10.8969, 0.0418
10.9167, 0.0418
10.9365, 0.0417
10.9565, 0.0417
10.9764, 0.0416
10.9963, 0.0416
11.0161, 0.0416
11.036, 0.0415
11.0559, 0.0415
11.0758, 0.0415
11.0956, 0.0414
11.1155, 0.0414
11.1354, 0.0414
11.1553, 0.0413
11.1751, 0.0413
11.195, 0.0412
11.2149, 0.0412
11.2348, 0.0412
11.2547, 0.0411
11.2745, 0.0411
11.2944, 0.0162
11.3143, 0.0162
11.3342, 0.0161
11.354, 0.0161
11.3739, 0.0161
11.3938, 0.016
11.4137, 0.016
11.4335, 0.016
11.4534, 0.0159
11.4733, 0.0159
11.4932, 0.0158
11.513, 0.0158
11.5329, 0.0158
11.5528, 0.0157
11.5727, 0.0157
11.5925, 0.0157
11.6124, 0.0156
11.6322, 0.0156
11.6522, 0.0156
11.672, 0.0155
11.6919, 0.0155
11.7118, 0.0154
11.7317, 0.0154
11.7515, 0.0154
11.7713, 0.0153
