#DataThief /Users/yishuxu/Desktop/Screenshot 2022-01-06 at 14.43.23.png Thursday 6-Jan-2022 3:35:54 pm
13.3321836021, 2.7799589451
13.3399771026, 2.7778588017
13.3477760722, 2.7778624479
13.3555695727, 2.7757623046
13.3633685423, 2.7757659506
13.371167512, 2.7757695968
13.3789664816, 2.7757732429
13.3867654512, 2.7757768888
13.3945644208, 2.775780535
13.4023579213, 2.7736803917
13.4101568909, 2.7736840377
13.4179558605, 2.7736876839
13.4257548301, 2.77369133
13.4335537997, 2.7736949761
13.4413527694, 2.7736986221
13.449151739, 2.7737022682
13.4569507086, 2.7737059143
13.4647496782, 2.7737095604
13.4725431787, 2.7716094171
13.4803421483, 2.7716130632
13.488141118, 2.7716167093
13.4959400876, 2.7716203553
13.5037390572, 2.7716240014
13.5115380268, 2.7716276475
13.5193315272, 2.7695275042
13.5271304969, 2.7695311503
13.5349294665, 2.7695347963
13.5427284362, 2.7695384425
13.5505274058, 2.7695420885
13.5583209063, 2.7674419452
13.5661198759, 2.7674455913
13.5739188455, 2.7674492374
13.5817178151, 2.7674528834
13.5895167847, 2.7674565296
13.5973102851, 2.7653563863
13.6051092549, 2.7653600323
13.6129082245, 2.7653636785
13.6207071941, 2.7653673245
13.6285006946, 2.7632671813
13.6362996642, 2.7632708273
13.6440986338, 2.7632744734
13.6518921343, 2.7611743301
13.6596911039, 2.7611779762
13.6674900735, 2.7611816223
13.675283574, 2.759081479
13.6830825436, 2.7590851251
13.6908815133, 2.7590887712
13.6986750138, 2.7569886279
13.7064739834, 2.756992274
13.7142674839, 2.7548921307
13.7220664535, 2.7548957767
13.729859954, 2.7527956335
13.7376589236, 2.7527992795
13.7454524241, 2.7506991362
13.7532513937, 2.7507027822
13.7610448941, 2.748602639
13.7688438638, 2.7486062851
13.7766373643, 2.7465061417
13.7844363339, 2.7465097879
13.7922298344, 2.7444096446
13.8000233349, 2.7423095012
13.8078223045, 2.7423131474
13.815615805, 2.7402130041
13.8234147747, 2.7402166502
13.831208275, 2.7381165069
13.8390017755, 2.7360163636
13.8468007453, 2.7360200097
13.8545942458, 2.7339198664
13.8623877462, 2.7318197231
13.8701867159, 2.7318233692
13.8779802164, 2.7297232259
13.8857737169, 2.7276230826
13.8935726865, 2.7276267287
13.901366187, 2.7255265854
13.9091596874, 2.7234264421
13.916953188, 2.7213262988
13.9247521576, 2.7213299449
13.9325456581, 2.7192298016
13.9403391586, 2.7171296583
13.9481326591, 2.715029515
13.9559316287, 2.7150331611
13.9637251292, 2.7129330178
13.9715186297, 2.7108328744
13.9793121301, 2.7087327312
13.9871056306, 2.706632588
13.9949046003, 2.7066362339
14.0026981008, 2.7045360907
14.0104916012, 2.7024359475
14.0182796326, 2.6982320147
14.0260731331, 2.6961318715
14.0338666336, 2.6940317282
14.0416601341, 2.6919315848
14.0494536346, 2.6898314416
14.0572471351, 2.6877312983
14.0650406356, 2.685631155
14.0728341361, 2.6835310118
14.0806276366, 2.6814308685
14.0884211371, 2.6793307252
14.0962146376, 2.6772305819
14.1040081381, 2.6751304386
14.1117797621, 2.6646151378
14.1195732626, 2.6625149945
14.1273722322, 2.6625186406
14.1351602635, 2.6583147079
14.142953764, 2.6562145646
14.1507472645, 2.6541144213
14.1585352959, 2.6499104887
14.1663287964, 2.6478103454
14.1741168278, 2.6436064127
14.1819048591, 2.6394024801
14.1896983596, 2.6373023368
14.197486391, 2.6330984041
14.2052798915, 2.6309982608
14.2130679229, 2.6267943282
14.2208559542, 2.6225903955
14.2286439856, 2.6183864628
14.2364374861, 2.6162863195
14.2442255174, 2.6120823869
14.2520135488, 2.6078784542
14.2598015802, 2.6036745215
14.2675896116, 2.5994705889
14.275377643, 2.5952666562
14.283149267, 2.5847513554
14.2909372983, 2.5805474228
14.2987253296, 2.5763434901
14.3065133611, 2.5721395573
14.3143013924, 2.5679356248
14.3220894238, 2.5637316921
14.3298719861, 2.55742397
14.3376600174, 2.5532200374
14.3454480488, 2.5490161047
14.353230611, 2.5427083826
14.3610186424, 2.53850445
14.3688012047, 2.532196728
14.3765837669, 2.5258890059
14.3843717983, 2.5216850733
14.3921543605, 2.5153773513
14.3999369228, 2.5090696291
14.4077194849, 2.5027619072
14.4155020473, 2.4964541852
14.4232846095, 2.490146463
14.4310671718, 2.4838387411
14.438849734, 2.477531019
14.4466268271, 2.4691195075
14.4544093893, 2.4628117856
14.4621864825, 2.4544002742
14.4699690448, 2.448092552
14.4777461379, 2.4396810407
14.485523231, 2.4312695293
14.4933003241, 2.4228580178
14.5010774172, 2.4144465065
14.5088545104, 2.4060349951
14.5166261344, 2.3955196943
14.5244032275, 2.3871081829
14.5321748515, 2.3765928821
14.5399464754, 2.3660775813
14.5477180995, 2.3555622806
14.5554951926, 2.3471507691
14.5632777549, 2.3408430471
14.5710384406, 2.3261201676
14.5788100645, 2.3156048668
14.5865707504, 2.3008819873
14.5943314362, 2.2861591077
14.6021030602, 2.2756438069
14.6098637459, 2.2609209274
14.6175861478, 2.2314715223
14.6253358953, 2.212541064
14.6330856428, 2.1936106057
14.6408244521, 2.1704725687
14.648546854, 2.1410231636
14.656230972, 2.0968472328
14.6638986827, 2.0463599339
14.6715663933, 1.9958726351
14.6793380173, 1.9853573343
14.6751377308, 1.8696470957
14.6671364036, 1.7918032428
14.6591952368, 1.737101073
14.6512868847, 1.6950216395
14.6433949399, 1.6592535741
14.6355084644, 1.625589298
14.627632927, 1.5961326006
14.6197902044, 1.5792986396
14.6118982597, 1.5435305742
14.6040336605, 1.5182814557
14.5961745307, 1.4951361265
14.5883208698, 1.4740945867
14.580467209, 1.4530530468
14.5726135481, 1.432011507
14.5647598873, 1.4109699672
14.5569116955, 1.3920322168
14.5490635038, 1.3730944663
14.541215312, 1.3541567158
14.5333671204, 1.3352189655
14.5255243978, 1.3183850044
14.517676206, 1.299447254
14.5098334834, 1.2826132929
14.5019907608, 1.2657793318
14.4941425691, 1.2468415814
14.4862998465, 1.2300076202
14.478462593, 1.2152774486
14.4706198704, 1.1984434876
14.4627498022, 1.1710905796
14.4549344252, 1.1647755654
14.4470971717, 1.1500453937
14.4392599182, 1.135315222
14.4314226648, 1.1205850502
14.4235799422, 1.1037510893
14.4157426887, 1.0890209176
14.4078999661, 1.0721869565
14.4000627126, 1.0574567848
14.3922254591, 1.0427266131
14.3843827365, 1.0258926521
14.3765454831, 1.0111624804
14.3687082296, 0.9964323087
14.3608709761, 0.981702137
14.3530282535, 0.9648681759
14.345191, 0.9501380042
14.3373482774, 0.9333040431
14.3295055547, 0.9164700821
14.3216901777, 0.9101550679
14.3138748008, 0.9038400537
14.3177086562, 0.8785964042
14.3137982331, 0.8743870024
14.305977387, 0.8659681989
14.2981291953, 0.8470304484
14.2902755344, 0.8259889085
14.2824218736, 0.8049473688
14.2745627436, 0.7818020396
14.2666926754, 0.7544491317
14.2588226072, 0.7270962238
14.2624376976, 0.6177009994
14.270181976, 0.5966667517
14.2779317235, 0.5777362935
14.2856978783, 0.5651172033
14.2934695023, 0.5546019025
14.3012411262, 0.5440866017
14.3090236886, 0.5377788797
14.3168007817, 0.5293673683
14.324583344, 0.5230596463
14.3323659062, 0.5167519242
14.3401484685, 0.5104442022
14.3479364998, 0.5062402695
14.3557190621, 0.4999325475
14.3635070935, 0.4957286148
14.3712896557, 0.4894208928
14.3790831562, 0.4873207495
14.3868766567, 0.4852206062
14.3946592189, 0.4789128842
14.4024581886, 0.4789165302
14.4102462198, 0.4747125976
14.4180397204, 0.4726124543
14.4257949371, 0.4557857854
14.4335884375, 0.4536856421
14.441381938, 0.4515854988
14.4491754385, 0.4494853555
14.456968939, 0.4473852122
14.4647624395, 0.4452850689
14.47255594, 0.4431849256
14.4803439714, 0.438980993
14.4881374719, 0.4368808497
14.4959309724, 0.4347807064
14.503729942, 0.4347843525
14.5115234425, 0.4326842092
14.519316943, 0.4305840659
14.5271104435, 0.4284839226
14.5348984747, 0.4242799899
14.5426919753, 0.4221798466
14.5504854758, 0.4200797034
14.5582789763, 0.4179795601
14.5660724768, 0.4158794168
14.5738659773, 0.4137792734
14.5816594778, 0.4116791302
14.5894584474, 0.4116827763
14.5972519479, 0.4095826329
14.6050454483, 0.4074824897
14.6128389489, 0.4053823464
14.6206324494, 0.4032822031
14.628431419, 0.4032858492
14.6362249195, 0.4011857059
14.64401842, 0.3990855626
14.6518119205, 0.3969854193
14.6596108901, 0.3969890654
14.6674043906, 0.3948889221
14.675197891, 0.3927887788
14.6829913915, 0.3906886355
14.6907848921, 0.3885884922
14.6985783926, 0.3864883489
14.7063718931, 0.3843882057
14.7141708627, 0.3843918517
14.7219643632, 0.3822917084
14.7297633328, 0.3822953545
14.7375568333, 0.3801952112
14.7453558029, 0.3801988573
14.7531547724, 0.3802025034
14.760948273, 0.3781023601
14.7687472427, 0.3781060062
14.7765407431, 0.3760058629
14.7843342436, 0.3739057196
14.7921332133, 0.3739093656
14.7999267137, 0.3718092224
14.8077256834, 0.3718128685
14.8155191839, 0.3697127251
14.8233181535, 0.3697163713
14.8311116539, 0.367616228
14.8389106236, 0.3676198741
14.8467041241, 0.3655197308
14.8545030937, 0.3655233769
14.8622965942, 0.3634232336
14.8700955638, 0.3634268796
14.8778890643, 0.3613267364
14.8856880339, 0.3613303824
14.8934870035, 0.3613340285
14.901280504, 0.3592338852
14.9090794736, 0.3592375313
14.9168729741, 0.357137388
14.9246719438, 0.3571410341
14.9324654443, 0.3550408908
14.9402644139, 0.3550445369
14.9480633835, 0.355048183
14.955856884, 0.3529480397
14.9636558536, 0.3529516858
14.9714493541, 0.3508515425
14.9792483237, 0.3508551886
14.9870472932, 0.3508588346
14.9948407938, 0.3487586913
15.0026397634, 0.3487623374
15.0104387331, 0.3487659834
15.0182322336, 0.3466658402
15.0260312032, 0.3466694863
15.0338301728, 0.3466731323
15.0416236733, 0.3445729891
15.0494226429, 0.3445766352
15.0572216125, 0.3445802813
15.065015113, 0.342480138
15.0728140825, 0.342483784
15.0806130522, 0.3424874301
15.0884065527, 0.3403872868
15.0962055224, 0.3403909329
15.1039990228, 0.3382907896
15.1117979925, 0.3382944357
15.1195969621, 0.3382980818
15.1273904626, 0.3361979385
15.1351894322, 0.3362015846
15.1429884018, 0.3362052307
15.1507819022, 0.3341050874
15.1585808719, 0.3341087335
15.1663798415, 0.3341123795
15.174173342, 0.3320122363
15.1819723117, 0.3320158823
15.1780673577, 0.3299102699
15.1702519807, 0.3235952557
15.1741295891, 0.3151819213
15.1819285587, 0.3151855673
15.1897275283, 0.3151892134
15.1975264979, 0.3151928595
15.2053199984, 0.3130927162
15.213118968, 0.3130963623
15.2209179376, 0.3131000084
15.2287169072, 0.3131036544
15.2365158769, 0.3131073006
15.2443093774, 0.3110071573
15.252108347, 0.3110108033
15.2599073166, 0.3110144494
15.2677062862, 0.3110180955
15.2754997867, 0.3089179522
15.2832987563, 0.3089215983
15.2910977259, 0.3089252444
15.2988912263, 0.3068251011
15.306690196, 0.3068287472
15.3144891657, 0.3068323933
15.3222881353, 0.3068360393
15.3300816358, 0.304735896
15.3378806054, 0.3047395421
15.345679575, 0.3047431882
15.3534730755, 0.3026430449
15.3612720451, 0.302646691
15.3690710147, 0.3026503371
15.3768699844, 0.3026539832
15.3846634849, 0.3005538399
15.3924624545, 0.300557486
15.4002614241, 0.300561132
15.4080603937, 0.3005647781
15.4158538942, 0.2984646348
15.4236528638, 0.2984682808
15.4314518334, 0.298471927
15.439250803, 0.2984755731
15.4470443035, 0.2963754297
15.4548432732, 0.2963790759
15.4626422427, 0.2963827219
15.4704357433, 0.2942825787
15.4782347129, 0.2942862247
15.4860336825, 0.2942898708
15.4938326521, 0.2942935169
15.5016261526, 0.2921933736
15.5094251222, 0.2921970197
15.5172240919, 0.2922006658
15.5250175923, 0.2901005225
15.532816562, 0.2901041686
15.5406155315, 0.2901078146
15.5484145012, 0.2901114607
15.5562080017, 0.2880113174
15.5640069713, 0.2880149635
15.5718059409, 0.2880186096
15.5795994414, 0.2859184663
15.587398411, 0.2859221124
15.5951973807, 0.2859257585
15.6029963503, 0.2859294046
15.6107898508, 0.2838292613
15.6185888203, 0.2838329072
15.6263877899, 0.2838365534
15.6341867596, 0.2838401995
15.6419857292, 0.2838438455
15.6497792297, 0.2817437023
15.6575781993, 0.2817473484
15.665377169, 0.2817509945
15.6731761386, 0.2817546406
15.6809696391, 0.2796544973
15.6887686087, 0.2796581433
15.6965675783, 0.2796617894
15.7043665478, 0.2796654355
15.7121600484, 0.2775652922
15.719959018, 0.2775689383
15.7277579877, 0.2775725844
15.7355569573, 0.2775762305
15.7433504578, 0.2754760872
15.7511494274, 0.2754797333
15.758948397, 0.2754833793
15.7667473666, 0.2754870254
15.7745408671, 0.2733868821
15.7823398366, 0.2733905282
15.7901388062, 0.2733941743
15.797937776, 0.2733978204
15.8057367456, 0.2734014665
15.8135302461, 0.2713013231
15.8213292157, 0.2713049692
15.8291281853, 0.2713086153
15.8369271549, 0.2713122613
15.8447261245, 0.2713159075
15.852519625, 0.2692157642
15.8603185947, 0.2692194103
15.8681175642, 0.2692230564
15.8759165339, 0.2692267024
15.8837155035, 0.2692303485
15.891509004, 0.2671302052
15.8993079736, 0.2671338513
15.9071069432, 0.2671374974
15.9149059129, 0.2671411435
15.9227048825, 0.2671447896
15.930498383, 0.2650446463
15.9382973526, 0.2650482924
15.9460963221, 0.2650519384
15.9538952917, 0.2650555845
15.9616942614, 0.2650592306
15.9694877619, 0.2629590873
15.9772867315, 0.2629627334
15.9850857012, 0.2629663795
15.9928737325, 0.2587624468
16.0006781713, 0.2608698823
