#DataThief /Users/yishuxu/Desktop/Screenshot 2022-01-06 at 14.43.23.png Thursday 6-Jan-2022 3:21:36 pm
11.6465670314, 2.3794514105
11.6543605319, 2.3773512672
11.6621540324, 2.3752511239
11.6699475329, 2.3731509806
11.6777410334, 2.3710508372
11.6855400029, 2.3710544834
11.6933389725, 2.3710581295
11.7011379422, 2.3710617755
11.7089369118, 2.3710654217
11.7167358815, 2.3710690677
11.7245348511, 2.3710727138
11.7323338207, 2.3710763599
11.7401327903, 2.371080006
11.7479317599, 2.3710836521
11.7557307295, 2.3710872981
11.7635296992, 2.3710909442
11.7713286687, 2.3710945903
11.7791276383, 2.3710982364
11.786926608, 2.3711018825
11.7947201085, 2.3690017392
11.8025190781, 2.3690053853
11.8103180477, 2.3690090313
11.8181170174, 2.3690126774
11.825915987, 2.3690163235
11.8337149566, 2.3690199696
11.8415139262, 2.3690236157
11.8493128958, 2.3690272618
11.8571063962, 2.3669271185
11.8649053659, 2.3669307645
11.8727043356, 2.3669344105
11.8805033052, 2.3669380567
11.8883022748, 2.3669417028
11.8961012444, 2.3669453489
11.9038947449, 2.3648452056
11.9116937145, 2.3648488517
11.9194926841, 2.3648524977
11.9272916538, 2.3648561438
11.9350906234, 2.3648597899
11.9428895929, 2.364863436
11.9506830935, 2.3627632927
11.9584820631, 2.3627669388
11.9662810327, 2.3627705849
11.9740800023, 2.362774231
11.9818735028, 2.3606740877
11.9896724724, 2.3606777337
11.9974714421, 2.3606813798
12.0052704117, 2.3606850259
12.0130693813, 2.360688672
12.0208628818, 2.3585885287
12.0286618514, 2.3585921748
12.036460821, 2.3585958209
12.0442543215, 2.3564956776
12.0520532911, 2.3564993237
12.0598522608, 2.3565029697
12.0676512304, 2.3565066157
12.0754447309, 2.3544064725
12.0832437005, 2.3544101186
12.0910426701, 2.3544137647
12.0988361706, 2.3523136214
12.1066351402, 2.3523172675
12.1144341098, 2.3523209136
12.1222276103, 2.3502207703
12.1300265799, 2.3502244164
12.1378255496, 2.3502280624
12.14561905, 2.3481279191
12.1534180197, 2.3481315652
12.1612169893, 2.3481352113
12.1690104898, 2.346035068
12.1768094594, 2.3460387141
12.184608429, 2.3460423602
12.1924073986, 2.3460460063
12.2002063682, 2.3460496523
12.2079998687, 2.3439495091
12.2157988384, 2.3439531551
12.2235923389, 2.3418530118
12.2313803702, 2.3376490792
12.2391738707, 2.3355489359
12.2469673712, 2.3334487926
12.2547663408, 2.3334524387
12.2625653103, 2.3334560847
12.2703642801, 2.3334597308
12.2781632497, 2.3334633769
12.2859567502, 2.3313632335
12.2937557198, 2.3313668797
12.3015546894, 2.3313705258
12.309353659, 2.3313741719
12.3171471595, 2.3292740286
12.3249461291, 2.3292776747
12.3327396296, 2.3271775314
12.3405385992, 2.3271811775
12.3483320997, 2.3250810342
12.3561310694, 2.3250846803
12.3639245699, 2.322984537
12.3717180703, 2.3208843937
12.37951704, 2.3208880398
12.3873105405, 2.3187878965
12.3951095101, 2.3187915425
12.4029030106, 2.3166913993
12.4107019802, 2.3166950453
12.4184954806, 2.314594902
12.4262944503, 2.3145985481
12.4340879508, 2.3124984048
12.4418814513, 2.3103982615
12.4496804209, 2.3104019076
12.4574739214, 2.3083017643
12.4652674219, 2.306201621
12.4730663915, 2.3062052671
12.480859892, 2.3041051237
12.4886588616, 2.3041087699
12.496452362, 2.3020086266
12.5042458626, 2.2999084832
12.5120448322, 2.2999121294
12.5198383327, 2.2978119861
12.5276318332, 2.2957118428
12.5354308028, 2.2957154889
12.5432243033, 2.2936153456
12.5510178038, 2.2915152023
12.5588113043, 2.289415059
12.5666102738, 2.2894187051
12.5744037744, 2.2873185618
12.5821972749, 2.2852184185
12.5899907754, 2.2831182753
12.597789745, 2.2831219213
12.6055832455, 2.281021778
12.613376746, 2.2789216348
12.6211702465, 2.2768214915
12.6289692161, 2.2768251375
12.6367627165, 2.2747249943
12.644556217, 2.272624851
12.6523497176, 2.2705247077
12.6601432181, 2.2684245644
12.6679367186, 2.2663244211
12.6757356882, 2.2663280672
12.6835291887, 2.2642279239
12.6913226892, 2.2621277806
12.6991161897, 2.2600276373
12.7069096902, 2.257927494
12.7147031906, 2.2558273507
12.7224966912, 2.2537272073
12.7302901917, 2.2516270641
12.7380836922, 2.2495269208
12.7458826618, 2.2495305669
12.7536761623, 2.2474304236
12.7614696628, 2.2453302803
12.7692631633, 2.2432301371
12.7770566638, 2.2411299938
12.7848501642, 2.2390298505
12.7926436648, 2.2369297072
12.8004371652, 2.2348295639
12.8082306657, 2.2327294206
12.8160241662, 2.2306292773
12.8238176667, 2.228529134
12.8316111672, 2.2264289907
12.8394046677, 2.2243288474
12.847192699, 2.2201249148
12.8549861995, 2.2180247715
12.8627797001, 2.2159246282
12.8705732006, 2.2138244849
12.8783667011, 2.2117243416
12.8861602016, 2.2096241983
12.893953702, 2.207524055
12.9017472025, 2.2054239117
12.909540703, 2.2033237684
12.9173287343, 2.1991198358
12.9251222349, 2.1970196925
12.9329157354, 2.1949195492
12.9407092359, 2.1928194059
12.9485027364, 2.1907192626
12.9562907678, 2.18651533
12.9640842682, 2.1844151867
12.9718777687, 2.1823150434
12.9796658001, 2.1781111107
12.9874593005, 2.1760109673
12.9952528011, 2.1739108241
13.0030463016, 2.1718106808
13.010834333, 2.1676067481
13.0186278335, 2.1655066049
13.026421334, 2.1634064616
13.0342093653, 2.1592025289
13.0420028658, 2.1571023856
13.0497908972, 2.152898453
13.0575843977, 2.1507983097
13.0653778982, 2.1486981664
13.0731659296, 2.1444942337
13.0809539609, 2.1402903011
13.0887419923, 2.1360863684
13.0965300237, 2.1318824357
13.1043235242, 2.1297822924
13.1121224938, 2.1297859385
13.1199159942, 2.1276857952
13.1277094948, 2.1255856519
13.135492057, 2.1192779299
13.1432855575, 2.1171777866
13.1510735889, 2.1129738539
13.1588670894, 2.1108737107
13.1666551207, 2.106669778
13.1744431521, 2.1024658453
13.1822366525, 2.100365702
13.190024684, 2.0961617694
13.1978127153, 2.0919578367
13.2056007467, 2.087753904
13.2133942472, 2.0856537608
13.2211822786, 2.0814498281
13.22897031, 2.0772458954
13.2367638104, 2.0751457521
13.2445518418, 2.0709418195
13.2523398732, 2.0667378868
13.2601279046, 2.0625339541
13.2679159359, 2.0583300215
13.2757094364, 2.0562298782
13.2834974678, 2.0520259455
13.2912854992, 2.0478220129
13.2990735305, 2.0436180802
13.3068615619, 2.0394141475
13.3146495933, 2.0352102149
13.3224321555, 2.0289024928
13.3302201869, 2.0246985602
13.3380027491, 2.0183908381
13.3457907805, 2.0141869055
13.3535788119, 2.0099829728
13.3613668433, 2.0057790401
13.3691548746, 2.0015751075
13.376942906, 1.9973711748
13.3847364065, 1.9952710315
13.3925189687, 1.9889633094
13.4003070001, 1.9847593768
13.4080950315, 1.9805554441
13.4158775936, 1.974247722
13.423660156, 1.9679400001
13.4314591256, 1.9679436462
13.439247157, 1.9637397134
13.4470297192, 1.9574319915
13.4548177506, 1.9532280588
13.462605782, 1.949024126
13.4703938133, 1.9448201935
13.4781818447, 1.9406162608
13.4859479996, 1.9279971705
13.4937360309, 1.923793238
13.5015185932, 1.9174855159
13.5093011554, 1.9111777938
13.5170891868, 1.9069738612
13.5248717491, 1.9006661392
13.5326543113, 1.8943584171
13.5404423427, 1.8901544845
13.5482249049, 1.8838467625
13.5560074672, 1.8775390403
13.5637900294, 1.8712313184
13.5715725916, 1.8649235963
13.5793551539, 1.8586158742
13.5871377162, 1.8523081523
13.5949202784, 1.8460004302
13.6027028407, 1.8396927081
13.6104854029, 1.8333849862
13.6182679652, 1.8270772641
13.6260505274, 1.820769542
13.6338276205, 1.8123580307
13.6416101828, 1.8060503086
13.649392745, 1.7997425865
13.6571698382, 1.7913310752
13.6649524004, 1.7850233532
13.6727294934, 1.7766118416
13.6805120558, 1.7703041197
13.6882891489, 1.7618926083
13.696066242, 1.7534810968
13.7038433351, 1.7450695855
13.7116258974, 1.7387618634
13.7194029905, 1.7303503519
13.7271800836, 1.7219388406
13.7349571768, 1.7135273292
13.7427342699, 1.7051158177
13.7505058939, 1.694600517
13.7582829869, 1.6861890056
13.7660600801, 1.6777774941
13.7738317041, 1.6672621934
13.7816033281, 1.6567468926
13.7893804213, 1.6483353812
13.7971520452, 1.6378200804
13.8049236693, 1.6273047796
13.8126952933, 1.6167894789
13.8204669173, 1.6062741781
13.8282385413, 1.5957588773
13.8360046961, 1.5831397871
13.8437763202, 1.5726244864
13.851542475, 1.5600053962
13.8593086299, 1.547386306
13.8670747848, 1.5347672159
13.8748409396, 1.5221481257
13.8826016254, 1.5074252462
13.8903623112, 1.4927023667
13.8981229969, 1.4779794871
13.9058836826, 1.4632566076
13.9136334302, 1.4443261493
13.921394116, 1.4296032698
13.9291493326, 1.4127766009
13.9368990801, 1.3938461426
13.9446433585, 1.372811895
13.9523876369, 1.3517776473
13.9601319152, 1.3307433997
13.9678980701, 1.3181243095
13.9755657808, 1.2676370107
13.9832006767, 1.2045269755
13.9908355726, 1.1414169404
13.9984704685, 1.0783069053
14.0061053645, 1.0151968702
14.0138332355, 0.9878512544
14.0212876504, 0.85531617
14.0288295712, 0.7564417155
14.0365136892, 0.7122657848
14.0442470294, 0.6870239584
14.0519967769, 0.6680935001
14.0597629317, 0.65547441
14.0675236175, 0.6407515304
14.0752843033, 0.6260286509
14.0830395199, 0.609201982
14.0908056748, 0.5965828919
14.0985663605, 0.5818600123
14.1063270463, 0.5671371328
14.114087732, 0.5524142533
14.1218702943, 0.5461065312
14.1296419183, 0.5355912304
14.1374244805, 0.5292835084
14.1451961045, 0.5187682076
14.1529841359, 0.514564275
14.1607666981, 0.5082565529
14.1685547295, 0.5040526203
14.1763427609, 0.4998486876
14.1841307923, 0.4956447549
14.1919188236, 0.4914408223
14.1997123241, 0.489340679
14.2075058246, 0.4872405357
14.215293856, 0.483036603
14.2230818874, 0.4788326704
14.2308753879, 0.4767325271
14.2386634192, 0.4725285944
14.2464514506, 0.4683246617
14.2542340128, 0.4620169397
14.2620220442, 0.457813007
14.2698155447, 0.4557128637
14.2776035761, 0.4515089311
14.2853970766, 0.4494087878
14.2931851079, 0.4452048551
14.3009786084, 0.4431047118
14.3087666398, 0.4389007792
14.3165546712, 0.4346968465
14.3243427025, 0.4304929138
14.3321307339, 0.4262889812
14.3399242344, 0.4241888379
14.3477177349, 0.4220886946
14.3555112354, 0.4199885513
14.3633047359, 0.417888408
14.3710982364, 0.4157882647
14.378897206, 0.4157919107
14.3866907065, 0.4136917675
14.394484207, 0.4115916242
14.4022777075, 0.4094914808
14.410071208, 0.4073913376
14.4178647085, 0.4052911943
14.425658209, 0.403191051
14.4334571785, 0.4031946971
14.4412506791, 0.4010945538
14.4490441796, 0.3989944106
14.4568376801, 0.3968942673
14.4646311806, 0.394794124
14.4724246811, 0.3926939807
14.4802181816, 0.3905938374
14.4880171512, 0.3905974835
14.4958051825, 0.3863935508
14.5036041521, 0.3863971969
14.5113976527, 0.3842970536
14.5191911531, 0.3821969103
14.5269846536, 0.380096767
14.5347781541, 0.3779966237
14.5425716546, 0.3758964804
14.5503651551, 0.3737963371
14.5581641247, 0.3737999832
14.5659576252, 0.3716998399
14.5737511256, 0.3695996966
14.5815446262, 0.3674995534
14.5893381267, 0.3653994101
14.5971370963, 0.3654030561
14.6049305968, 0.3633029129
14.6127295664, 0.3633065589
14.6205230669, 0.3612064155
14.6283165674, 0.3591062724
14.636115537, 0.3591099184
14.6439090374, 0.357009775
14.6517080071, 0.3570134212
14.6595015077, 0.3549132779
14.6672950081, 0.3528131346
14.6750939778, 0.3528167807
14.6828874783, 0.3507166374
14.6906864479, 0.3507202835
14.6984799484, 0.3486201402
14.7062734489, 0.3465199969
14.7140724185, 0.346523643
14.7218659189, 0.3444234997
14.7296648886, 0.3444271458
14.7374583891, 0.3423270025
14.7452573587, 0.3423306486
14.7530508592, 0.3402305053
14.7608498288, 0.3402341514
14.7686433293, 0.3381340081
14.7764422989, 0.3381376542
14.7842357994, 0.3360375109
14.792034769, 0.336041157
14.7998282694, 0.3339410137
14.8076272392, 0.3339446598
14.8154207396, 0.3318445165
14.8232197093, 0.3318481626
14.8310132098, 0.3297480193
14.8388121794, 0.3297516652
14.8466056799, 0.3276515221
14.8544046495, 0.3276551681
14.86219815, 0.3255550247
14.8699971196, 0.3255586709
14.87779062, 0.3234585276
14.8855895897, 0.3234621737
14.8933830902, 0.3213620304
14.9011820598, 0.3213656765
14.9089810294, 0.3213693226
14.9167745299, 0.3192691793
14.9245734995, 0.3192728254
14.932367, 0.3171726821
14.9401659697, 0.3171763282
14.9479649393, 0.3171799743
14.9557584397, 0.315079831
14.9635574094, 0.315083477
14.9713509099, 0.3129833338
14.9791498795, 0.3129869798
14.9869488491, 0.3129906259
14.9947423496, 0.3108904826
15.0025413192, 0.3108941287
15.0103402888, 0.3108977748
15.0181337893, 0.3087976315
15.025932759, 0.3088012776
15.0337262594, 0.3067011343
15.0415252291, 0.3067047804
15.0493241987, 0.3067084265
15.0571176992, 0.3046082831
15.0649166688, 0.3046119293
15.0727156384, 0.3046155753
15.0805091389, 0.3025154319
15.0883081085, 0.3025190781
15.0961070781, 0.3025227242
15.1039005786, 0.3004225809
15.1116995483, 0.300426227
15.1194985179, 0.3004298731
15.1272920184, 0.2983297298
15.135090988, 0.2983333759
15.1428899576, 0.298337022
15.1506834581, 0.2962368787
15.1584824277, 0.2962405247
15.1662813973, 0.2962441708
15.1740803669, 0.2962478169
15.1818738674, 0.2941476736
15.1896728371, 0.2941513197
15.1974718067, 0.2941549658
15.2052653072, 0.2920548225
15.2130642768, 0.2920584686
15.2208632464, 0.2920621147
15.2286567469, 0.2899619714
15.2364557165, 0.2899656174
15.2442546861, 0.2899692635
15.2520481866, 0.2878691201
15.2598471562, 0.2878727663
15.2676461259, 0.2878764124
15.2754450955, 0.2878800584
15.283238596, 0.2857799152
15.2910375656, 0.2857835613
15.2988365352, 0.2857872074
15.3066300357, 0.2836870641
15.3144290053, 0.2836907101
15.3222279749, 0.2836943562
15.3300269445, 0.2836980023
15.337820445, 0.281597859
15.3456194147, 0.2816015051
15.3534183843, 0.2816051512
15.3612173538, 0.2816087973
15.3690108544, 0.279508654
15.376809824, 0.2795123001
15.3846087936, 0.2795159461
15.3924022941, 0.2774158028
15.4002012637, 0.2774194489
15.4080002333, 0.277423095
15.415799203, 0.2774267411
15.4235927035, 0.2753265978
15.4313916731, 0.2753302439
15.4391906427, 0.27533389
15.4469896123, 0.2753375361
15.4547831128, 0.2732373928
15.4625820824, 0.2732410388
15.470381052, 0.2732446848
15.4781800217, 0.273248331
15.4859735222, 0.2711481877
15.4937724918, 0.2711518338
15.5015714614, 0.2711554799
15.509370431, 0.271159126
15.5171639314, 0.2690589827
15.524962901, 0.2690626288
15.5327618707, 0.2690662748
15.5405608403, 0.2690699209
15.5483543408, 0.2669697776
15.5561533105, 0.2669734237
15.5639522801, 0.2669770698
15.5717512497, 0.2669807159
15.5795502193, 0.266984362
15.5873437198, 0.2648842187
15.5951426894, 0.2648878647
15.6029416589, 0.2648915108
15.6107406287, 0.2648951569
15.6185395983, 0.264898803
15.6263330988, 0.2627986597
15.6341320684, 0.2628023058
15.641931038, 0.2628059519
15.6497300076, 0.2628095979
15.6575235081, 0.2607094547
15.6653224777, 0.2607131006
15.6731214473, 0.2607167468
15.6809204169, 0.2607203929
15.6887193865, 0.260724039
15.6965128871, 0.2586238957
15.7043118567, 0.2586275418
15.7121108263, 0.2586311879
15.7199097959, 0.2586348339
15.7277087655, 0.25863848
15.735502266, 0.2565383367
15.7433012357, 0.2565419828
15.7511002053, 0.2565456289
15.7588991749, 0.256549275
15.7666981444, 0.2565529211
15.774491645, 0.2544527778
15.7822906146, 0.2544564238
15.7900895842, 0.2544600699
15.7978885539, 0.254463716
15.8056875235, 0.2544673621
15.8134864931, 0.2544710082
15.8212799936, 0.2523708649
15.8290789632, 0.252374511
15.8368779328, 0.2523781571
15.8446769024, 0.2523818031
15.852475872, 0.2523854492
15.8602693725, 0.2502853058
15.8680683422, 0.250288952
15.8758673118, 0.2502925981
15.8836662814, 0.2502962442
15.891465251, 0.2502998903
15.8992587515, 0.248199747
15.9070577211, 0.248203393
15.9148566907, 0.2482070391
15.9226556604, 0.2482106852
15.9304546299, 0.2482143313
15.9382535995, 0.2482179774
15.9460471001, 0.2461178341
15.9538460697, 0.2461214802
15.9616450393, 0.2461251262
15.9694440089, 0.2461287723
15.9772375094, 0.244028629
15.9850364791, 0.2440322751
