tPlunge     logmu     logM     ePlunge     nuPlunge     gamPlunge     phiPlunge     costhetaSky     phiSky     cosLambda     alpPlunge     SMBHspin     costhetaSpin     phiSpin     Zeta     SMBHQuad      SNRI     SNRII     SNR_tot   
14848835.4892    -9.61684257065    1.15856488903    0.14707945804    0.00306202232373    0.158913963365    0.285306279889    -0.158040837023    4.21644918164    0.129927963282    2.51570643507    0.0    0.153601070998    3.54371962844    3.48074708923e-22    0.0    25.755659972    29.6234449516    39.2543311163  
51220075.8575    -8.29594995846    1.25954791896    0.178638869343    0.00268392886886    0.170886569335    3.19689112959    0.488730844522    0.245344379881    -0.00420366082469    0.0529108530069    0.0    -0.626251453648    0.154158709636    6.50329462532e-23    0.0    14.17356286    14.2464474096    20.0960480677  
55799520.0039    -8.74710355164    1.27144418798    0.0745874869909    0.00290254779785    3.44731412069    5.43141345242    0.906029895389    2.08438780068    -0.40547981653    0.865589591631    0.0    -0.801436603777    3.77832227779    8.59174789478e-23    0.0    16.4858607935    16.585493039    23.3850846792  
12350470.7357    -9.35432471077    0.248145902541    0.0361959758201    0.00828243423999    2.20457091438    3.63142568059    0.235780920599    3.29497996245    -0.0661553228315    1.65212539776    0.0    0.593274863978    0.618770946764    1.78911170424e-22    0.0    14.7090443145    13.6343966538    20.056239846  
62704150.5112    -8.90446719784    1.06964064948    0.0027259003262    0.00371071611938    1.10531310601    3.62663241316    0.170933239814    0.0435780151318    -0.296192378131    5.01256552713    0.0    0.117120532448    1.52789200323    9.83850233822e-23    0.0    21.0630957704    19.157720018    28.4723065402  
6788808.36048    -9.52754108813    0.687647418429    0.195119106551    0.00467323146238    5.91602020902    4.70728729255    -0.863049339996    0.714778805857    -0.692900251668    5.10440758769    0.0    0.407188495852    2.98532008762    2.64180686535e-22    0.0    7.26103778409    25.7008006024    26.7068122641  
20113461.8215    -9.28033863781    1.03363076924    0.112205516935    0.00357699906588    2.59121776563    4.38701750684    -0.281373461733    2.38551945188    -0.957528119473    2.14812455318    0.0    0.727850132639    1.03084029987    1.57153378464e-22    0.0    13.6723808458    15.386687437    20.5835892952  
34898088.5932    -8.68273938322    1.1527528415    0.145538625345    0.00308426485911    0.314270026281    3.44340122904    -0.92723862537    5.33646033676    -0.371202462872    3.70807673069    0.0    0.306108769879    3.73903069329    8.18501636495e-23    0.0    16.8163169001    17.3859769625    24.188028217  
57027690.42    -8.98945251206    2.28584617131    0.180745344242    0.000959652831632    3.91757388864    0.449000231445    0.180502693116    4.42029399112    -0.951107988963    0.544575994512    0.0    0.159097784088    0.937040853678    1.07124304557e-22    0.0    20.7924630367    20.3600875171    29.1008536445  
42749633.4707    -9.4715106551    2.04279636093    0.0801941727661    0.00133668719803    3.15334344534    3.99462077392    0.988892350749    2.03533948784    -0.77625517116    2.84246009168    0.0    -0.540774355316    1.74956387834    2.29067081445e-22    0.0    24.4008082276    23.8200173972    34.0997459076  
32565159.1584    -9.07036114751    0.609015807909    0.062839749231    0.00567569427158    2.70102028539    1.81223054462    0.206597573697    3.15370305432    -0.40218642174    0.365050740421    0.0    0.182514176326    0.547701554218    1.17283744798e-22    0.0    14.3818919456    15.3537992336    21.0375370906  
47783646.909    -9.49303771542    -0.0459915958844    0.181705256209    0.00987159909649    0.118904397936    0.652019810548    -0.455111596985    2.93993216103    0.611216199458    1.08065314792    0.0    0.313415347737    4.83714456398    2.41456093764e-22    0.0    15.5784596405    16.4758421833    22.6746947151  
11163532.1857    -9.22156153124    1.5575300646    0.190706112008    0.00196736293214    1.38786121273    5.12103822484    -0.980753718414    3.38690797519    0.270677108335    0.955013057776    0.0    0.966297850739    2.69360616084    1.43350405865e-22    0.0    14.8698872097    15.6940183783    21.6198001492  
49916713.5898    -9.34329362734    0.744331665067    0.03188806007    0.00505572571869    3.13962335894    1.02119463068    -0.344168339082    1.48302616038    -0.00590363891136    2.40391033853    0.0    -0.868390147397    4.57407149305    1.7527099513e-22    0.0    35.70669257    34.0375041675    49.3307164375  
22123675.5879    -8.68503786694    0.949668937673    0.133259143608    0.0038209595157    4.12495037596    1.50855412228    0.583608094145    0.596738362185    -0.249344845186    4.39646577644    0.0    -0.381600777735    1.58360760359    8.19874596413e-23    0.0    17.3283994545    17.5906330029    24.6921808899  
50426041.9925    -8.74243447496    1.23904164466    0.166011667033    0.00277454472078    4.86998191468    3.43903495778    -0.795146275843    1.24869172096    0.0193951106115    4.23329142269    0.0    0.138274358548    6.13532245799    8.56040969008e-23    0.0    15.3236806328    16.7846567989    22.7275139862  
62566917.8187    -9.02249512146    1.73633372555    0.00895895891957    0.00189897084665    6.18261707934    2.7151844896    0.791124140319    5.86841941474    -0.377693179046    4.19901448141    0.0    -0.262300929306    0.717513020664    1.11027775027e-22    0.0    19.7000685217    21.5880943951    29.225648314  
47823921.5715    -9.23107063647    1.38753077838    0.187136189578    0.00234074845266    4.2267379507    2.88783180222    0.408444707303    4.55939440095    0.430093485499    4.27465972358    0.0    -0.42449589136    5.88903558546    1.4541545108e-22    0.0    38.5090224234    39.0696825712    54.8578609155  
11816200.3862    -8.58584529558    1.72582152637    0.0986959233092    0.00180973591017    4.91731101298    2.53073293606    -0.0309665563713    4.42910565847    -0.0557747151434    4.74031011917    0.0    -0.0949324364975    5.86764829433    7.65717433583e-23    0.0    16.3579705694    16.4982096073    23.2330394352  
40635314.8183    -9.27954655856    0.739922215096    0.186751430268    0.00447489992055    6.18321484372    5.98247285597    0.356014052699    5.40774290732    -0.987686303592    2.84068397017    0.0    -0.442883475909    1.56766754543    1.56948450913e-22    0.0    27.5225612772    29.4390445931    40.3007286015  
26167369.5113    -8.63106110047    1.51389856075    0.0252084890234    0.00235098728089    2.49535614986    6.07128861129    0.50890945264    5.87257395747    0.434151646701    5.72506403776    0.0    0.869632052906    3.86109219004    7.89194933243e-23    0.0    13.3638812735    15.3754798844    20.3715169874  
12419677.0843    -8.7489027828    0.937612186407    0.0138722594759    0.00420981200709    1.3791987426    1.42820235984    -0.0145460481762    5.81451738144    -0.50519134795    1.71400981878    0.0    -0.210575658059    1.44910718667    8.60373616266e-23    0.0    15.180429569    15.1624437719    21.4556552693  
44587838.5365    -8.77491585572    1.61895325405    0.148649212161    0.00192943519772    3.00525323719    6.20847409379    0.685279012753    2.63697097335    -0.886304658572    1.6244971736    0.0    -0.859407188684    5.28252254917    8.78360976237e-23    0.0    15.9293560776    18.5112319326    24.4215088131  
43920927.7912    -8.80631510134    1.99925622306    0.0273992045712    0.00144515830219    0.882863939924    4.58862135823    -0.429329236589    2.69004701895    0.427111960674    2.70188821614    0.0    0.324274984388    3.63740771942    9.01409777254e-23    0.0    20.3474633935    19.4662084294    28.1594129408  
62578002.0262    -9.31265665788    1.55830808317    0.090445138325    0.00215341661262    5.77519655148    6.13923258991    -0.965726166144    1.76197962108    0.394658660421    4.3057064293    0.0    0.221068179707    5.25793565324    1.65954780717e-22    0.0    20.6211941315    10.5901926098    23.181583788  
35095060.3709    -8.9562054404    2.0128494256    0.182867872653    0.00125811577381    5.50843813538    3.87977225303    0.66859923359    5.32649053421    -0.262009320975    5.51078500228    0.0    0.0472040788301    3.35147099011    1.03501471187e-22    0.0    16.323150497    18.9636620182    25.0213053074  
62165981.4744    -9.08903308212    0.753827414905    0.178695915271    0.00445017631243    3.31690662039    4.67006637957    0.661857299056    0.316312780772    -0.805253969426    3.19436419943    0.0    -0.765894518836    0.26270678338    1.19945451011e-22    0.0    15.5671808097    14.0239134328    20.9525002406  
23105723.2679    -9.021230512    0.537260726039    0.162960819596    0.00561398640999    5.58291532764    6.27334349211    0.0459732968562    0.724088049765    -0.366648120228    1.29469241828    0.0    0.882016022478    3.11844849082    1.10870066272e-22    0.0    19.5763237421    20.2726075963    28.1817506555  
44415106.5466    -9.03647101485    0.44350207152    0.144961445738    0.00627200633325    2.33130240124    5.28227762567    -0.0610734682625    3.27606947193    0.458402004366    0.00821577758964    0.0    -0.426437235565    3.0260627709    1.12780914088e-22    0.0    14.937265377    13.8447543998    20.3666178177  
59328647.629    -8.97175917071    0.586041291804    0.165046291004    0.00533579221869    5.4363557906    0.690011019786    0.322571389331    6.16272340784    -0.773917313327    4.79277900059    0.0    0.436727967254    6.15230290142    1.05162451037e-22    0.0    15.1838549194    14.0091104334    20.6592503579  
62183529.3415    -9.3722894376    0.43211788837    0.107722815276    0.00655151354317    6.22716743447    1.36555146917    -0.148359550197    3.3063100171    0.631197625223    2.8706315878    0.0    -0.515038055019    3.6889442781    1.8513987004e-22    0.0    20.1698171602    19.2825402557    27.9040836257  
53224991.9547    -9.16341292794    1.81462201993    0.0918827220837    0.00166470463327    2.08434288049    0.134037405081    0.764054787587    4.59679462738    0.11950999629    3.8173527621    0.0    -0.0775605784979    1.21485111887    1.31971691576e-22    0.0    24.7285347261    25.8759210514    35.7919504911  
46558764.7559    -8.93440260816    0.882438677315    0.0442989433513    0.0043704514654    1.76370360846    0.387751589567    0.48526699757    6.17393450339    -0.373058823138    1.37909249399    0.0    -0.997873387814    4.61064354587    1.01267947669e-22    0.0    16.8086556495    15.2665181631    22.7067717117  
62664786.1786    -9.04888318636    0.946638702328    0.194194290037    0.00361053181351    4.38209919446    6.18455190836    -0.714818934638    5.17247233087    0.558682426355    1.9328058294    0.0    0.663016557984    3.53741177566    1.14382479052e-22    0.0    21.7213065421    21.2804688516    30.4084447554  
40894458.6541    -9.49703182779    0.405005106126    0.1125062127    0.00670532704121    0.221861187369    4.16666838665    0.426727594564    5.9865752631    0.30848155905    1.12481892595    0.0    -0.492309608784    3.201911967    2.43854462609e-22    0.0    31.586520403    28.1807273664    42.3303870295  
39271703.8334    -9.49729429498    -0.0288341340776    0.000196091947264    0.0111448225231    3.09785248804    2.43088398657    -0.513140258875    3.83346649969    0.786237544135    5.22748142869    0.0    -0.773932559049    0.69844349673    2.44018895853e-22    0.0    21.9148616385    23.2078851976    31.9196976173  
32661521.6763    -9.15820983185    1.51196948909    0.0382327315217    0.00233749472112    1.96922498762    5.67708483578    0.405751259239    3.65886275114    0.0347893054119    2.5843054227    0.0    0.407577041841    4.24280736869    1.31046602708e-22    0.0    16.8104679098    13.2236555372    21.3882420295  
48567909.9047    -9.72301696672    -0.727968300934    0.113871176791    0.0207957475035    2.26329397461    2.62969075556    -0.811354661364    3.96632613493    0.354889925936    4.34085206535    0.0    0.874808437223    2.01398704913    5.49805076639e-22    0.0    22.1389940312    19.2246956962    29.3210501402  
60924680.1991    -8.87118251575    0.998848485364    0.0339249830621    0.00391492382744    0.194195200383    3.41033989922    0.483866987367    2.21637728135    0.495053431779    3.91847666286    0.0    0.678278910063    2.43206040622    9.53896818945e-23    0.0    15.3730214849    14.0638318261    20.8355742711  
57126436.4765    -9.00097154633    1.61003133772    0.169907956506    0.00190719172253    3.7719118552    1.55626147649    -0.678162353896    0.0289989937022    0.874690229479    2.69960576797    0.0    -0.953360352982    2.17488875862    1.0844672354e-22    0.0    19.577049117    19.1568631184    27.3906235173  
8467942.83075    -8.73417034596    1.25881869912    0.131787036535    0.00280850539348    0.823501675677    0.392407827672    -0.464712052373    0.48423399981    -0.0889858140922    1.83352194773    0.0    -0.899286035982    5.5211088748    8.50574623264e-23    0.0    17.1019219523    17.0516562556    24.150252908  
40845154.215    -8.98244736732    -0.255880123382    0.0363036545323    0.0137096233353    0.761105575984    5.99765494092    0.576003459153    3.52103885768    -0.211201156015    3.23581348428    0.0    -0.506253264324    3.93721508758    1.06333770759e-22    0.0    16.6361636951    16.7687473404    23.6210251653  
41012450.1479    -8.9582704507    0.813440166949    0.149568202361    0.00431407196318    4.15773062581    0.575271597144    0.350990642829    6.07852410165    -0.542074375699    1.81038880093    0.0    -0.653305798953    1.53514396253    1.03715573688e-22    0.0    18.6536647003    16.0415202864    24.6026335959  
34232472.0074    -8.95254480715    0.873506818697    0.10640098046    0.00421805781674    3.32955922279    4.749102009    -0.318547513594    5.75148232502    -0.475034883573    4.09763947531    0.0    -0.455089693723    5.7235481695    1.03116808007e-22    0.0    15.6172502909    14.8880645061    21.5766765602  
57274862.8137    -8.44051715043    1.858255195    0.162438856922    0.0014989664556    2.94856531009    0.0514883969311    -0.488391997095    4.10798458588    0.948223946725    2.01772291736    0.0    -0.67363593237    4.46342001474    7.01302392966e-23    0.0    16.5403004454    16.3695779445    23.271111295  
18234278.5021    -8.94277274241    2.03917660011    0.107877308311    0.00131325957108    1.08669318887    4.17777627629    0.245565122935    0.196003058991    -0.28988212605    2.93103153727    0.0    0.873557136773    3.22656457578    1.0211027022e-22    0.0    21.3806992487    21.5655801968    30.3678868147  
43484562.6952    -9.46857304522    2.1447451298    0.126652563813    0.00116324264304    1.19526243927    5.17435765106    0.608056665636    4.58063469101    0.492357583513    1.65911538662    0.0    0.0723577375717    3.47880094657    2.2748458966e-22    0.0    38.202876453    38.9964108489    54.5910233315  
33652036.9803    -8.9053381832    1.35359944013    0.0715801812312    0.00267932378027    3.51532674054    4.83224815437    0.491125112625    4.12487929363    0.713440731738    0.0405994607341    0.0    -0.689441303112    4.384470233    9.84638607375e-23    0.0    19.2298476948    19.0868127881    27.0941592372  
48890851.1938    -8.69832076687    1.55370910118    0.0874741126316    0.0021681985187    0.691191707753    1.0204970062    -0.216308981479    3.14939082537    -0.167608818803    1.03615226302    0.0    -0.0177266665085    2.64488141147    8.27896344642e-23    0.0    15.4406262267    15.041033212    21.555640059  
51279499.5592    -8.38426139417    0.978970627984    0.0768434002507    0.00388237428283    4.84519987365    4.01200738736    -0.781516513089    3.0337567888    -0.245469201718    3.58383664324    0.0    -0.422243810788    0.0956047132125    6.80134275361e-23    0.0    14.3193667598    14.2195412151    20.1801788091  
1683739.88036    -9.12854527355    1.25933711499    0.00100562772739    0.00307221145893    2.22834858044    5.10468365533    0.891400100863    3.06401349816    -0.710778035515    0.3350558163    0.0    -0.122300830544    5.47830285866    1.260274286e-22    0.0    16.3874405908    16.4115022146    23.1923611143  
5158341.23421    -8.77494772366    2.16854844781    0.0504617080399    0.00120303208608    3.30094072981    5.39436877182    0.406556874471    3.86434671325    0.707529620055    1.1981785165    0.0    0.781933973594    4.6915032192    8.78389502276e-23    0.0    17.3159301036    17.2401580402    24.4349029997  
810660.481099    -9.47895708827    1.70769206902    0.0642540068425    0.00188995584089    1.29292581181    5.26044094823    0.729788041574    3.50114072023    0.234589562475    5.50283513965    0.0    0.748730707695    0.0880556601104    2.33236987457e-22    0.0    17.4881182691    15.453572433    23.3376772953  
31549020.8641    -8.92107328537    0.553373596774    0.106696761418    0.00580819331871    1.30862139293    4.89045422304    0.487588366999    5.98981938648    0.460356132366    1.57549300561    0.0    0.826928545074    0.819237385905    9.99576122158e-23    0.0    17.1739077463    17.055870363    24.2042521289  
29370401.7201    -9.16524748874    2.06077587364    0.183615124823    0.00119830919902    3.64235814087    2.29927449427    0.313522734124    1.54084757583    0.279522094213    3.14149351862    0.0    0.718705669101    4.22402677434    1.32307693584e-22    0.0    32.4179633233    31.9267618279    45.499917218  
39355217.2658    -9.42857271198    0.49625981435    0.0415559374976    0.0064414343162    0.904385147956    3.9048422886    0.522913228333    1.46234343582    0.470622647178    0.38311226506    0.0    -0.469922218826    2.54434329866    2.07782600686e-22    0.0    39.4716638227    36.8948897177    54.0300391654  
22313560.0956    -8.84101071799    0.912279218915    0.195294182824    0.00373232070802    6.01045299782    0.149272016494    -0.841720075428    2.91047714841    0.883553502257    3.8357105907    0.0    -0.499553753322    3.5998351603    9.28568255117e-23    0.0    15.6057524774    14.8628458901    21.5509558567  
13110491.4373    -9.70710670576    -0.505516157133    0.114657090094    0.0166372618088    4.31119738656    3.40393071439    0.299941999111    4.38028440948    -0.412415229833    1.35215230413    0.0    0.0256263355323    2.01468139227    5.06546374351e-22    0.0    29.200343039    25.5316190532    38.7881889893  
61149983.3695    -8.97580256488    1.482769186    0.164399183189    0.00217786466673    4.11451723261    1.47004077976    -0.780459770381    4.56133503007    0.609156330298    5.19764014972    0.0    0.792932239192    6.1354929241    1.05605233395e-22    0.0    30.8712398851    30.3919193008    43.3209211678  
34101597.2786    -9.1537315858    0.747844831091    0.00906281443911    0.00510258051067    5.53656006211    2.45053549549    -0.744790950625    1.29327004225    -0.976376779845    4.41479226848    0.0    0.281888423479    5.66893034406    1.30270462004e-22    0.0    16.0555224959    16.8243035906    23.255902346  
49472226.2679    -8.98460664421    2.52164132399    0.0637453367728    0.00083773898366    1.93895752256    4.26323729335    -0.772389993375    3.62350660398    0.90971464419    3.26294144451    0.0    -0.0113907654935    3.18805564602    1.06576208358e-22    0.0    14.2093392044    14.3068740836    20.1641257354  
51401911.8647    -9.63512870917    0.101352356554    0.150083012405    0.00878888776492    5.09438966274    0.658460658173    -0.687061871488    3.04029943706    -0.594065688962    0.0421841687433    0.0    0.268765096166    4.92479274748    3.71897095122e-22    0.0    26.3314875028    37.0950004702    45.4905077351  
49666487.7246    -9.06800875875    0.895046680124    0.137868283803    0.00401890427063    5.83124078942    0.515722875083    -0.143005018563    2.35856927192    0.180599880701    4.02638694441    0.0    0.451923710769    0.829238699983    1.16957290033e-22    0.0    24.8800507497    25.898363325    35.9129802191  
39260081.4319    -9.07633105808    0.0501952165083    0.0734273534412    0.00985188659552    4.82707146389    4.23702151922    0.581396466871    4.67508293558    -0.83205581354    0.512261332019    0.0    -0.445812035568    1.93981305245    1.18117835839e-22    0.0    17.2910142398    17.1935645485    24.3843768697  
33123370.4648    -9.56636685764    0.535994979363    0.164057248572    0.00561507150162    3.83397881479    1.68375538311    0.5273084546    5.24021092506    0.0311912669407    2.61535890773    0.0    -0.782173973766    4.78823413233    2.95293754809e-22    0.0    52.3146708655    58.7530179311    78.6685572753  
48585470.1558    -8.92402826111    1.52233978879    0.160502180622    0.00210133612471    2.32953773447    4.41900850567    0.96992981046    4.8393203645    0.272794326016    5.40276907649    0.0    0.0977978015378    4.7349839623    1.00246537313e-22    0.0    18.1949159027    16.7790824244    24.7506075019  
28854707.4763    -9.0568781795    1.22301296817    0.00640707835818    0.00317708573211    0.454814615815    5.0416090335    -0.628339336632    1.09285730264    0.334426218199    1.0890570533    0.0    0.114834653415    5.39942676842    1.15446968408e-22    0.0    22.6289951824    21.2924567607    31.0715325961  
41212906.0252    -9.34678776976    -0.245359672681    0.141803995794    0.012526563043    3.45771911524    3.77212286045    -0.455029494807    0.753735730154    -0.478463133401    5.97979199633    0.0    -0.518863737551    3.6300536924    1.76397042566e-22    0.0    14.2776692624    15.2089784857    20.8606056035  
46233850.4626    -8.87020054191    1.05209914082    0.189421934022    0.00326574678536    1.70286744809    4.25434794578    -0.635948106101    3.35385194416    -0.00750360278944    5.56749074518    0.0    0.163706526653    4.1061820876    9.53074163845e-23    0.0    18.6446737074    18.8625546597    26.5220630032  
23663925.5642    -8.63737323903    1.64988618094    0.111021148386    0.00193332497746    0.252752946997    2.87466485847    -0.945689529306    3.50387192786    0.339134127924    3.76928364732    0.0    -0.0541053380266    1.34835133317    7.92656526259e-23    0.0    15.2204187741    15.0204388468    21.3839830436  
17144886.9315    -9.40048182569    0.0799517776954    0.198491742154    0.00854966783891    1.71975268958    2.02396806019    0.336446961548    6.1521513503    0.476259911669    2.27829679444    0.0    -0.348532889492    4.61743694431    1.95838068727e-22    0.0    28.217294145    27.8120923056    39.6197951444  
50092026.7485    -9.35244933728    0.387715864595    0.0749936351261    0.00702185515606    2.58220759811    5.8036153837    -0.459483456908    2.23982787779    0.228168675943    2.09124705975    0.0    -0.396676435798    0.0564687590942    1.7827642726e-22    0.0    21.8518693649    20.5998496119    30.0309506805  
59636203.0302    -8.78577769174    1.30737380489    0.110433879962    0.00272436225792    1.22101644456    4.77593009122    0.477872416256    2.91154313178    0.850795015343    2.80654668633    0.0    0.0377908513425    5.55782808825    8.86179660595e-23    0.0    17.4074978972    16.6372743486    24.0794493457  
27490416.5407    -9.30575126655    0.921871199514    0.0318729554531    0.00423333793263    0.0913239101848    0.0838753383402    0.671412618756    2.92200758427    0.726762146911    3.47659341585    0.0    0.214218152557    2.15191641555    1.63992441315e-22    0.0    13.9252480548    16.2395963901    21.3924525079  
19609713.3523    -9.77344923834    -0.676856569954    0.0819408079571    0.0202583956524    3.33428263278    4.61489121899    0.467475897408    1.01524081969    -0.437937938004    4.59504783835    0.0    -0.709823365246    3.57566267893    7.49853518369e-22    0.0    32.0510656276    30.8365098442    44.4765235516  
40489442.621    -9.51290307748    1.65279255546    0.0254239732056    0.00204585981388    4.15787423501    4.30151535408    -0.994677069958    2.82259546628    -0.767289397731    2.64609918105    0.0    0.281798681353    0.117505630843    2.54054811056e-22    0.0    57.8845258336    58.832017549    82.5337786598  
28328963.9702    -9.47311080905    1.2620014115    0.0817372247098    0.00291497351792    1.85666051363    4.66184423284    0.482964579166    5.70719476276    0.227292324197    5.75175704996    0.0    0.148252543335    5.80922414961    2.29960988604e-22    0.0    32.64017334    36.5475128295    49.0010368225  
61129941.215    -9.4977537784    -0.722371730486    0.0314219743253    0.0219221977213    4.90469885179    5.90131370252    -0.647533928666    3.26008965169    -0.454671786571    3.29624940764    0.0    0.783084922048    1.21775364339    2.44315585884e-22    0.0    20.958330044    21.4351871616    29.9786398438  
37367799.4825    -9.10734909628    0.140293154198    0.189412272373    0.00812791705667    0.248219221375    5.95880037473    0.722787587325    3.72988725785    -0.262105826199    0.548959060588    0.0    -0.954565787748    3.97571525719    1.22679907496e-22    0.0    18.4271541146    18.4795851199    26.0970319187  
33453951.5386    -8.91882596923    1.02995344207    0.0533485905584    0.00374930494376    1.99310464433    5.76869143031    -0.632656831512    4.47795060306    -0.621850691621    4.58766638993    0.0    0.348556883875    2.40478123387    9.97414326064e-23    0.0    19.861607624    21.3781821401    29.1806464806  
52270416.2212    -8.51781126863    1.86109103804    0.0755149911299    0.00160846386869    4.12259112708    6.26507083703    -0.671569024491    2.95516228902    0.91206668684    5.33545966329    0.0    -0.406930010024    2.42940456047    7.33631186228e-23    0.0    15.5919470412    15.4264087701    21.9336020772  
45590976.7217    -9.03250505079    0.552005398793    0.0513518088383    0.00605457535546    1.2024148141    2.77657893046    0.0832791947658    1.0231423924    0.552112945759    2.71781926257    0.0    0.363349260704    3.95172562803    1.12275069559e-22    0.0    15.8645846007    17.5091863642    23.6274554637  
19157772.8567    -9.02171984855    0.977255917777    0.145850806602    0.00367488554337    4.56856935744    2.92115170714    0.327494940182    3.90623081894    0.621374942229    2.73861829243    0.0    0.677771879977    4.15269877508    1.10937375563e-22    0.0    19.6277961311    21.6748278201    29.2412130733  
50534750.123    -8.74880963969    1.12467523907    0.0187907858424    0.0034822127692    1.09052897091    4.14683017359    -0.746350917922    2.2765331107    0.1459728916    0.670447897962    0.0    -0.415399420805    0.478707663994    8.60324086842e-23    0.0    20.0162538788    19.8760446744    28.2082890519  
39000578.1396    -8.84606209567    1.06702724669    0.112849346782    0.00345767816064    3.53667632424    3.57446598386    0.787146725804    4.25395551264    -0.490360781599    0.201482548434    0.0    0.0659759662509    2.27209615469    9.32688070273e-23    0.0    17.4563153946    16.6099606955    24.0959279021  
22758434.5573    -8.96568600348    1.55045037473    0.0133254167685    0.00228159396331    0.579056084777    1.17844647082    0.939828371105    0.414459540424    0.610582832992    2.7070634781    0.0    -0.156362445574    1.08985651569    1.04502133117e-22    0.0    16.4761551959    17.1362570301    23.7721474638  
8385160.71318    -9.19288713934    1.76396402567    0.100536345851    0.00173949053008    5.3197190885    3.15933267201    -0.337710969776    2.81246436391    0.563152920011    0.394346714727    0.0    -0.309333604496    6.16673164464    1.37488619449e-22    0.0    22.3425509173    16.4167655306    27.7254354696  
34537909.923    -8.93642303762    0.971370359021    0.0944470176172    0.00386102563931    5.42123262931    1.02172190254    -0.42468931535    4.80073047749    -0.386841235612    2.94867960677    0.0    0.512945530743    5.47469288002    1.0147288912e-22    0.0    14.8783643762    13.9141354271    20.3707852376  
49565742.1415    -9.22580443076    1.00803501506    0.0915443923845    0.00373031522098    1.376274906    2.77474304798    -0.85438810202    5.95275905431    -0.0889858140922    0.251697126886    0.0    0.0105989665119    4.22660797875    1.44261012998e-22    0.0    29.1501908957    27.6642671353    40.1876262721  
22825670.5508    -9.46933854666    0.349114548375    0.091570410028    0.00720945512352    3.40097816366    0.0212687549529    -0.48012853362    4.08047163491    0.65742498273    3.2674582048    0.0    0.136271264527    2.37296491808    2.27890795602e-22    0.0    25.369676033    21.0994156695    32.9970574993  
15566550.5154    -9.27354717208    0.781611670519    0.0670223656041    0.00476230516703    4.18702233625    5.9064825911    -0.471030018594    4.65069824869    0.214516058389    5.96880755612    0.0    -0.252821999618    0.331860323846    1.55409614722e-22    0.0    21.2637601806    14.7393282057    25.872674639  
17394563.5571    -9.20071049856    0.567776499955    0.0168404210021    0.00608386620894    5.1989449342    4.65089151643    -0.678990868075    1.93416987069    -0.770103685703    0.688819742019    0.0    -0.311312789495    5.78284623029    1.39037105492e-22    0.0    15.3890226639    14.2636905258    20.9827282774  
55182875.0818    -9.29031960833    0.210837260894    0.00763345929207    0.00873643715756    2.59119445138    4.35406527102    -0.907285004406    5.26460487188    0.288534921151    5.20454114082    0.0    0.664324529332    0.0734323973244    1.59766755917e-22    0.0    24.5061260526    24.3603259381    34.5539533761  
43123315.5646    -8.83182685894    0.454959338123    0.00037695210997    0.00686949773218    2.58788856351    2.52327745853    0.0769976115304    5.79895225499    0.526090012637    4.39574489072    0.0    -0.140626132682    1.26864812508    9.21203348934e-23    0.0    15.4178555685    15.3679763801    21.7688991075  
36151410.1504    -9.06145135821    0.910584162533    0.125376954854    0.00400072088558    1.66543526048    6.15900588955    0.47194769545    6.09969324696    -0.566212618618    5.56380425282    0.0    0.354906499828    3.4972324768    1.16059338091e-22    0.0    24.6422329451    21.5650812179    32.7458756556  
51270330.1953    -9.18878134924    1.25159997941    0.0931952260897    0.00292023944684    4.87985113166    5.02655414812    0.265579165733    5.20549715436    0.149731125273    5.22270620277    0.0    0.985719163578    0.662726154391    1.366969854e-22    0.0    27.8334520407    26.8658661604    38.6843097011  
21700766.8771    -9.15722850043    0.350605865563    0.173052594258    0.00669863168607    4.26209466801    4.56195895938    -0.378430803572    1.88401553455    -0.289690707783    4.11563504641    0.0    0.468415186593    0.483799780955    1.30882018937e-22    0.0    19.7940893717    17.879676327    26.673747386  
42555551.8862    -9.39123183385    0.318078727775    0.127918048824    0.00721945676045    3.34080929455    5.42806520512    -0.668518626744    5.3252366033    0.0130959524314    1.75104511659    0.0    -0.467098585457    5.65934011526    1.92194805537e-22    0.0    13.5112268758    16.2560408165    21.1379307104  
51914693.9941    -9.22225912457    1.02907996795    0.133446961607    0.00352868094776    6.27120368802    5.61688787353    0.46334884684    1.03389392662    -0.744512064784    5.73583368678    0.0    -0.221246865202    1.08362189559    1.43503105611e-22    0.0    15.4500011182    16.641765012    22.7079474473  
7091429.84605    -9.05219966051    1.58666450316    0.112978731322    0.00205618703914    6.1277987145    2.34314740445    -0.206648206157    3.36256717526    0.703987372229    4.3158055369    0.0    0.242493769552    3.31656041466    1.14815797706e-22    0.0    17.6636223261    15.6828986539    23.6211105553  
62042834.7158    -9.00903400351    0.717085429298    0.113582074008    0.00490342523708    5.84158240243    3.42143311362    0.749558115414    1.71416646928    0.34833692797    1.56431823102    0.0    0.958476923018    2.85243352798    1.09400319885e-22    0.0    23.1110438534    23.1172441896    32.6883362518  
41846647.287    -8.70787091805    1.32449233213    0.090835259726    0.00271984570641    5.0902445174    5.11733997791    0.0186245532707    0.0412550160015    -0.635305211035    1.84560427207    0.0    -0.452955529991    2.44442251235    8.33793280501e-23    0.0    17.9906323661    15.0298690351    23.4426921693  
30152745.5644    -8.86217061362    1.1985144332    0.136261257881    0.00297125196525    5.15726870115    3.13484518972    0.373981301096    2.29771698326    0.9179162067    3.51932574665    0.0    -0.113772751561    6.24173153525    9.46192642398e-23    0.0    16.9854202782    17.8255217014    24.622220167  
24200365.2946    -8.85541277744    0.738077754014    0.0158600673407    0.00513394694939    2.69172601277    1.59544800361    0.598193016799    0.585813926051    -0.208267882155    6.07966304623    0.0    0.741433844408    4.86065960059    9.4048428566e-23    0.0    16.2792557954    17.0697473469    23.5879300435  
4486801.4137    -9.5313361591    0.236690322401    0.0382098204944    0.00836764792808    1.02399910193    4.66244343191    -0.772612853413    5.11697515748    -0.818734599277    3.22421160326    0.0    0.492101459053    2.77174084357    2.66968199116e-22    0.0    21.9142671161    19.685339576    29.457557561  
29829591.0284    -9.18172029246    0.391507490177    0.0766891537263    0.006986788197    6.23098176165    3.19609371838    -0.186765784114    4.41752929236    0.909049105656    1.00014124882    0.0    -0.252246367668    3.83061889498    1.35354518278e-22    0.0    17.2703649319    17.1279506097    24.3234906411  
35300056.855    -9.37379633484    0.370974037225    0.0370938936932    0.00732114249663    5.63555737491    2.77882836852    -0.630066750667    5.63856777121    0.94385003764    0.422226967201    0.0    0.0541310163283    1.19190581804    1.85689040749e-22    0.0    17.3600378523    21.6372254161    27.7405918816  
54542171.8103    -8.95540353105    0.122538198075    0.0543919725475    0.00928410796456    0.547310910095    2.14162592978    -0.35626445595    2.60922859253    -0.481708849185    1.19045072934    0.0    -0.54091680112    1.43248224651    1.03417026306e-22    0.0    17.0754114625    18.3916225692    25.0962438891  
55046045.8644    -9.15415057047    0.36082180931    0.169963539715    0.00665112428018    1.06745436746    6.14259447892    0.20457671375    5.57160406878    -0.173126941904    0.433139961569    0.0    0.996360706593    1.44691619505    1.30336445561e-22    0.0    15.9741474097    18.3067006978    24.2962687651  
50591405.04    -9.09393140811    1.22878782229    0.194219490238    0.00272284929421    4.51681648288    0.959206664468    0.583108405436    0.383196291121    -0.920361422224    1.56329466653    0.0    -0.260028290157    4.57454642886    1.20668343387e-22    0.0    14.0135893437    14.7073865519    20.3147213981  
43666845.4273    -9.16859599566    0.478314509951    0.0600703883842    0.00648027914607    2.99721626245    3.72950958233    0.909455812511    2.28950274867    -0.97519574525    4.70942368908    0.0    0.223058277836    2.80704043445    1.32919147893e-22    0.0    14.4545867755    15.1649747188    20.9502156808  
31418985.1893    -9.67720374814    -0.122626904762    0.167911276294    0.0108078931832    5.45137756599    0.163083596383    0.350151595704    4.87332727082    0.26634236648    3.76386945948    0.0    0.0703302022645    1.91028097843    4.40763808194e-22    0.0    32.2116681757    27.2127726004    42.1678379723  
37213218.5875    -8.60647282581    0.697122242431    0.100709593142    0.0050545933766    5.84508901405    2.89068745747    0.959955958604    3.41432298512    0.346273873987    5.92291494148    0.0    0.44512848473    1.54666143368    7.76194709247e-23    0.0    14.2735495303    14.3075452719    20.2099002447  
52980783.3473    -8.78561662743    1.30661383517    0.108101041676    0.00273161693152    4.77312933351    0.211298942602    0.742991351893    1.19503250133    -0.944970255729    2.41270652737    0.0    0.727226250688    1.29900315415    8.8604753438e-23    0.0    21.0453077194    20.7816878376    29.5767396172  
45699781.1342    -9.1910012131    1.80545441551    0.0945885932865    0.00167655261373    6.17786143272    5.66992356116    -0.0473300174673    1.88029257138    0.533130370322    0.86108387456    0.0    -0.148047770281    6.2107943575    1.37124595185e-22    0.0    36.6639346117    35.9133809569    51.3226561371  
32712195.0352    -8.93687257685    2.18300161274    0.173371409867    0.00107163555097    0.76116371598    2.52971966854    0.575048341784    6.24988974297    0.305912115883    5.81544440349    0.0    0.570652140581    3.69304133683    1.01514353677e-22    0.0    16.0130667244    14.2080703576    21.407652118  
26579819.8743    -8.68195503528    1.53346372979    0.181208418066    0.00203545718281    4.97967348443    1.44302233077    -0.547650745243    1.68671051558    0.300766558003    4.33066632882    0.0    -0.74393751982    6.13943903984    8.18025690392e-23    0.0    16.6091414947    14.1270121857    21.8044961989  
48789003.7907    -9.10313669675    1.66881688529    0.155364205728    0.00182400287161    2.92818462477    1.12949855728    0.181167022391    3.86003653764    0.497224038805    0.792346692524    0.0    0.467985878884    6.08910110171    1.22036986831e-22    0.0    17.9123499323    20.3769198283    27.1306310614  
53318597.7226    -9.44687419967    0.162964685937    0.06728291316    0.0088392202496    2.63488994339    1.72503073903    0.804290139878    1.22284830484    0.666866897821    6.17686873031    0.0    -0.527855710283    4.95693888127    2.16354202989e-22    0.0    21.5036596373    14.6813521354    26.0374629778  
18383803.3491    -8.63401841506    1.10844937191    0.121357380441    0.00329382798452    3.78881029744    1.24843299139    -0.764070299042    2.64427453726    -0.801083764327    3.07960671085    0.0    0.341432164068    0.379419573735    7.90820077267e-23    0.0    16.0504203225    15.7589937093    22.4935963167  
24961390.6101    -8.95888312543    0.203563476616    0.00858097048496    0.0087958561421    3.86583579836    2.64985932637    -0.0369822295674    3.58511615172    0.637228214901    1.31220991769    0.0    0.316456623386    1.93542744271    1.03778617979e-22    0.0    14.8934596825    14.4420997455    20.7458281679  
9862439.29356    -9.47144670217    -0.95510547722    0.0786610399499    0.0268216818306    0.294460719138    1.97690852583    -0.275002018406    0.828489586942    -0.436768861506    5.07136561806    0.0    -0.717986827328    5.2241020961    2.29039660769e-22    0.0    14.4641633953    14.8659389306    20.741460002  
47263007.7279    -9.75213997282    0.231868990402    0.0648394754304    0.00826455699417    2.83572465777    2.34806743142    0.82790547435    1.79739984094    -0.34928100677    3.58078877717    0.0    0.444770911308    2.26052113878    6.50653478364e-22    0.0    101.192649814    104.007793822    145.112279122  
58123424.1631    -8.9085747262    0.546760699671    0.186502791926    0.00542982428081    0.992730017692    2.625762083    0.779273962272    5.8790835724    0.22027494204    5.42153510603    0.0    0.443155865041    4.33461535178    9.87639781177e-23    0.0    13.8277853804    15.4988148307    20.7706742713  
9855156.04601    -9.4539502178    -0.171769190924    0.103929560488    0.0120207353181    3.70662480864    1.20689713773    0.411559165297    0.674629158154    -0.995472599707    4.28344843349    0.0    0.884486813123    0.138532145796    2.19858881924e-22    0.0    11.8892333481    16.2854129235    20.1635449189  
55661097.6623    -9.14147284549    0.968257263805    0.0225317181587    0.00406330333    0.539615106235    5.8556754753    0.909110180822    0.15930851887    -0.920165772757    3.27794752031    0.0    -0.127146329169    1.64953976308    1.2815868524e-22    0.0    16.7129706867    12.211459304    20.6988677832  
47436056.0531    -9.06980462873    0.390135967322    0.138005153572    0.00665785157062    5.73828901706    5.02291574805    -0.0515247762986    3.66626557922    -0.0164029375636    3.95403361497    0.0    -0.378109255116    1.91402994615    1.17208803695e-22    0.0    16.0637539414    17.4235458195    23.6986104996  
44633393.7285    -8.99977375013    1.6775435846    0.0536431339222    0.00196165446933    2.9081584002    1.56838639601    -0.963077036526    6.17352824141    -0.137665091741    5.18958413268    0.0    -0.618551792556    1.00014843012    1.08308021904e-22    0.0    15.0505093074    17.7257409625    23.2533808957  
61387645.5226    -9.61189955273    0.729931133943    0.0173400909304    0.00517175300613    5.37363462811    2.30663076114    0.452474228038    1.83459114072    0.792194328253    1.58717449436    0.0    -0.727631780865    5.31689451315    3.42088754752e-22    0.0    100.785004607    100.611526556    142.408905724  
27716753.3049    -8.6093041993    1.79285421681    0.0775156384829    0.00171957821273    2.67729514354    0.852042008646    -0.51258193975    5.46609913901    0.250306022569    0.0682181376617    0.0    -0.273238081151    2.85448500051    7.77661574408e-23    0.0    16.8127282514    16.8273469813    23.7871275627  
53156554.0987    -9.16477676759    0.851468386934    0.0605971923289    0.00446047740096    5.79030023981    3.34372267089    -0.601231489558    1.1492001672    -0.964700486097    4.91888327989    0.0    0.628488152418    4.33821413244    1.32223683154e-22    0.0    28.221256786    30.5227695343    41.5701671229  
15302542.1056    -9.16637812437    -0.153369294868    0.04932848343    0.0122740864126    6.184566835    3.58955045873    -0.0616734221798    4.90625771017    -0.0480851236617    4.76748207034    0.0    -0.945754920999    0.649027993249    1.32510079167e-22    0.0    16.9251867029    15.3384520659    22.8414110052  
56423897.2063    -8.90711880398    2.00598324427    0.0157119730759    0.00144491418707    0.380221975122    3.2605826506    -0.787197268481    3.96520576032    -0.190727966788    2.38192658383    0.0    -0.396036308895    0.11742337075    9.86305713362e-23    0.0    26.8209209141    26.9030186223    37.9886063138  
26905707.9042    -9.29695774833    1.06214232654    0.0600976782435    0.0036143696042    4.26405991981    3.79049294805    -0.375222647448    6.01953872578    -0.401270663002    1.52173818365    0.0    0.985990509038    1.34858995642    1.61553014931e-22    0.0    38.4835986919    34.9983874619    52.0180208506  
25538802.4425    -9.00017285614    0.928574064855    0.167182838245    0.00378027750068    0.44673405858    5.21839840372    -0.322315706022    3.57149160199    0.565382016905    6.16592190068    0.0    0.122052546363    5.46796964908    1.08355811756e-22    0.0    14.6202007797    14.2183734191    20.3939308012  
56296802.5369    -9.10128001437    1.85234753151    0.051562485069    0.00164927523532    3.52830880632    5.74689330928    0.68266953914    1.82328955558    0.29131036515    3.18472243967    0.0    -0.884465006274    3.02504097715    1.21765020189e-22    0.0    24.8362121603    25.5790732218    35.6528599324  
46188625.1197    -9.00654013632    0.727177827291    0.068775327979    0.00502261072706    0.471418183951    4.21292943011    0.363332822253    0.556211190865    0.415867347597    2.21687781538    0.0    -0.796964592674    6.23908263989    1.09099925095e-22    0.0    15.7437572423    17.7182290385    23.7023528867  
8147043.90074    -9.31456813002    0.615099825007    0.179374559901    0.00510885096571    1.79575816199    3.47558425714    0.887058430514    5.32286554656    0.474060164265    3.77067136856    0.0    0.436504117476    0.514258459114    1.66507422023e-22    0.0    15.3242950339    16.5205816535    22.5336112609  
61936355.8003    -9.18579713448    0.748015473718    0.029484094162    0.0050442497169    5.92657023596    0.933931059698    0.383389513691    3.10307848637    -0.342713376814    0.933513950745    0.0    0.68476882869    3.3926662233    1.36128934006e-22    0.0    13.8005506772    16.2356133039    21.3084569678  
39218250.2117    -8.50223581042    1.23608732338    0.0916584961245    0.00296938080644    4.00161009728    2.54470695369    0.44173610851    3.53601542526    -0.708805686016    5.99360038869    0.0    -0.0880477287841    0.430289523013    7.26792139904e-23    0.0    16.1147334794    16.2696795656    22.8995001753  
33876278.3054    -9.04808719143    -0.489608659279    0.0592607954694    0.0170684049665    4.69919461459    4.48588584197    -0.296590840465    5.95036070817    0.795478214202    0.356073748922    0.0    -0.123238492801    3.38912615533    1.14277801633e-22    0.0    15.5640463326    15.2918448456    21.819258856  
16328379.9578    -9.38154041266    2.22118587093    0.0485296878287    0.00114275909966    5.68901881636    5.92756869155    0.000749727067854    2.65380328625    0.235658724294    5.59308854318    0.0    0.226463046746    2.7128565743    1.88507700387e-22    0.0    18.4851858283    15.5305477377    24.1433222267  
42745800.6465    -9.17371109632    -0.0614608493088    0.0928235295272    0.0108591856171    6.2670954413    1.38913693263    0.36251458643    4.18129672058    -0.910215312296    2.97537317316    0.0    0.0957551387129    3.67894221057    1.33848008099e-22    0.0    22.2431905375    22.3270007222    31.5159401976  
27225079.4377    -9.03304118855    0.59890251395    0.117442970556    0.00550084647744    2.55003490553    2.29234354403    -0.41061560449    3.2632970902    -0.508639326655    0.268295401827    0.0    0.336145043222    3.49066382737    1.12342038468e-22    0.0    19.5048937909    18.0386705989    26.5675463446  
37235041.6282    -9.25431980777    0.301178069648    0.092372997395    0.00755883564109    4.85249638307    5.38958122717    -0.520644125171    0.337048084206    0.232255862272    3.17657626278    0.0    0.34542592773    1.60405292153    1.50721942151e-22    0.0    21.2516979691    20.8629512062    29.7808226818  
11148617.7643    -9.34611053061    2.25155006578    0.166582958559    0.00100744204114    5.01295123044    2.1835127681    0.588010021973    3.60564016114    -0.795724992867    4.37201014817    0.0    0.263597286802    4.36532090141    1.76193880174e-22    0.0    36.1112048547    34.8285400378    50.1701735818  
8921617.16415    -8.72303478    1.181304739    0.178722691191    0.00290211252264    4.57391187411    4.22280899873    0.732105543962    3.41823453419    -0.707888062413    5.97799814159    0.0    -0.386917123164    0.632943395257    8.43395380479e-23    0.0    15.9065059937    16.5706490165    22.9696177973  
15729759.6553    -9.23348731271    0.179941064473    0.0174118189818    0.00896351434072    5.31549105692    0.639967112768    -0.725267168292    2.93642371528    0.356105006232    0.126021880544    0.0    0.108637854529    1.39316240449    1.45943118213e-22    0.0    21.3330121518    21.4591012774    30.2587249418  
30615902.0829    -8.95999455603    0.793986156404    0.092701266033    0.00461659737417    1.63499043906    0.505081160076    0.259195056823    5.47880977438    0.542908265593    5.20114420398    0.0    -0.444498147441    1.27651709042    1.03899820505e-22    0.0    19.2105174055    21.0209297707    28.4767179888  
44112140.4706    -9.01125152281    1.18712811257    0.183281763328    0.00287170592535    2.2007650629    5.0552919241    -0.430701369739    3.1365931618    0.701853570017    0.425595447605    0.0    -0.47264521322    3.90248331672    1.0966485761e-22    0.0    18.4883790252    17.1127821769    25.1926075033  
47779693.1114    -9.27171245345    0.910318827766    0.181161337046    0.0037958714479    4.9672431937    3.3493831193    -0.207485415799    2.7300249506    0.0819044753601    1.8934240561    0.0    -0.259145379901    4.79285231816    1.54953076493e-22    0.0    39.5060689835    38.8560331841    55.4122802395  
9266730.914    -8.29614737233    1.97867808813    0.0634285350335    0.0014421431782    5.81240282524    5.69909737697    0.533991790846    4.79291010677    -0.388039698625    3.63116529423    0.0    -0.446403773445    5.66576727957    6.50393009761e-23    0.0    14.3212223131    14.5044358296    20.3832300502  
19776620.7809    -9.08933852556    2.2375380639    0.125357701775    0.00106134530815    5.28358972718    1.28210351855    -0.987854894427    5.38285557298    0.63784455105    2.90228452145    0.0    -0.13359353636    3.8940560296    1.19994111176e-22    0.0    15.6639482356    15.0575142637    21.7275863853  
47907896.8119    -8.88610025148    0.769790335991    0.0238044427009    0.00495176067809    1.57078858037    2.15860908834    -0.0687691892373    3.7594621994    0.858888924464    5.22876708082    0.0    0.118325981587    5.82213377255    9.67071441622e-23    0.0    15.0390285702    16.797404387    22.5460678274  
52309042.8604    -9.39887473032    1.07213098007    0.186334841544    0.00321141889717    5.43783839949    1.16837837102    0.526827152555    5.64767597697    -0.617612712168    3.69962139022    0.0    0.683149005188    2.4032968251    1.95187109186e-22    0.0    33.9126713872    35.1041660682    48.8095457463  
23650124.1757    -9.07896224126    0.952249716368    0.094729796316    0.00393470324836    5.14303011919    4.40475258258    0.32962569851    6.08697067025    -0.472392848983    4.84548985357    0.0    0.872112497218    0.549324527357    1.1849284323e-22    0.0    24.9060969996    25.480370909    35.6309271478  
35288930.8129    -8.98060585441    0.473578278916    0.126693231884    0.00618633681815    0.0824888428493    3.85795614003    0.326347114441    0.662783395458    -0.00900355155677    4.87731223639    0.0    0.132840179322    2.67210281088    1.0613023447e-22    0.0    14.6550938219    15.8251619786    21.5686700234  
59196841.9699    -9.20992399182    0.678988207062    0.178647141948    0.00479624320202    4.78100002474    0.97658293284    0.460224513535    0.4545423862    -0.0824101066171    5.10128924042    0.0    0.90163651195    2.55410104412    1.40907495368e-22    0.0    18.5332901124    16.9742597936    25.1318192324  
7276307.92306    -9.26862724171    0.822221669828    0.167342587657    0.00420381182373    3.38541765666    1.69757997746    0.67880531677    3.1281002706    0.41986478035    5.88883064552    0.0    -0.830125087515    5.20031839465    1.54189845198e-22    0.0    14.5406396744    17.5299081702    22.7755984026  
24953091.8263    -9.4061570403    0.710250565769    0.0853186617615    0.00504786615883    0.111414857196    5.79482059594    -0.329158134336    2.61092595335    0.710139500705    3.98278209289    0.0    -0.649495342697    0.661799373659    1.98125260527e-22    0.0    29.2161645467    31.3862531853    42.8798456134  
41251087.0596    -8.63249720776    1.64186773569    0.0873338202935    0.00198544534154    0.0336774538916    5.6898234102    -0.581042215326    1.83172118634    0.823297558227    0.372899044554    0.0    -0.515156309263    1.75291329506    7.89971537979e-23    0.0    16.157989456    16.3314533528    22.9738327641  
29501226.0365    -9.4085562737    0.690812202685    0.00716636452246    0.00540741337643    0.989365401671    3.40239927939    0.147443662284    3.37215400248    0.966851157327    2.4803804553    0.0    -0.901230972257    0.352376236224    1.99132230434e-22    0.0    22.7298495823    21.0680421215    30.9920709354  
55552458.3106    -8.9853143305    1.01987841558    0.0173616523771    0.00386999254533    5.58247425015    0.465007381267    0.699205937335    1.95524127197    0.10927765788    1.65814335105    0.0    -0.668269506022    0.150955991499    1.06657652397e-22    0.0    20.0416719575    20.1381449664    28.4115029088  
42864517.6734    -9.44956094564    0.555631800435    0.0379688400728    0.00608348614487    3.28835022157    1.42858500844    -0.676906523793    0.989103755206    0.0236941092131    1.2297516378    0.0    0.066122025644    1.79925795862    2.17702164496e-22    0.0    27.0749075151    24.4924496128    36.5093235351  
57186016.6557    -9.09152298184    0.777817243749    0.0307840670542    0.00489241479528    4.84603460264    4.50542971237    -0.662426941596    4.73723395177    -0.838325098031    5.378189547    0.0    -0.840246355325    1.10817099937    1.20310246949e-22    0.0    20.6610598464    21.7908449967    30.0286583058  
41800391.6357    -8.92096264346    1.17840583292    0.0417675248851    0.00325591838159    4.60463658975    0.891541545763    -0.398010113292    4.37933474714    -0.041791498621    0.734539758194    0.0    0.92715420651    4.14716752982    9.99517316181e-23    0.0    19.2095524835    19.182821141    27.1475143161  
32479855.2723    -9.08255353084    1.32720341607    0.0678024277408    0.00275826027844    0.0166067666604    1.35027355657    -0.265876996438    3.64777814913    -0.0940644025702    0.688449403647    0.0    0.154184658483    2.07657708152    1.19003496331e-22    0.0    24.0274690981    24.7516322934    34.4958341318  
15917394.2209    -9.49795076451    -0.178007342106    0.156518506638    0.0115508103197    5.24310076218    4.4886940016    0.969144373438    3.90101331152    -0.280393157942    5.81949107751    0.0    -0.0564884296571    1.72662823647    2.44472331217e-22    0.0    26.2813382366    24.4930698473    35.9251890747  
47470222.8058    -8.78185510938    1.09393235447    0.125048147733    0.00333145674954    1.75763986856    4.71393797364    0.105136153981    4.17036699974    -0.0878901242939    2.07869904353    0.0    0.539020496785    1.9241467214    8.83312684987e-23    0.0    14.8211350027    16.4212768966    22.1206776045  
21505576.3055    -8.95326824465    1.71552952523    0.160980603182    0.00173138174072    3.62391224346    4.4657334115    -0.882181204491    4.02576460361    0.232547648234    0.897504725956    0.0    -0.207993392117    0.679722098947    1.03191191528e-22    0.0    14.9624313448    16.9937449252    22.6420343241  
5867023.61513    -9.32219568092    0.28626165363    0.191394930234    0.00700923735555    5.60853864306    0.177500162103    -0.136585391294    6.15762140095    0.329898757696    1.51394631719    0.0    -0.687336735606    1.26620190985    1.68740655839e-22    0.0    20.6353380901    21.3867710797    29.7188686748  
16929373.2973    -8.96777070485    0.29460809023    0.0415442450466    0.00788064840744    4.82021956897    2.273182082    0.816764040637    0.796627983277    -0.0430903272011    2.70825750531    0.0    0.0277530111169    5.65282073936    1.04725490873e-22    0.0    14.4049995816    14.8156538519    20.6641625043  
